TSV-FILE	AVI-File	Left_before	Left_After	Right_Before	Right_After	Fixation_Direction	Before Total	After total	Prop Before	Prop After	Prop Target	Prop Distractor	Prop Dis(before)
VP25.tsv		0	0	0	0
VP25.tsv	A_BAUEN_essen_können1_neu.avi	749	517	4267	2617	right	5016	3134	0.14932216905901116	0.16496490108487555	0.16496490108487555	0.8350350989151244	0.8506778309409888
VP25.tsv	A_FAHREN_baden_können1_neu.avi	0	0	183	0		183	0	0.0	nan	nan	nan	1.0
VP25.tsv	A_LESEN_anziehen_können1_neu.avi	3082	1517	2016	1185	right	5098	2702	0.6045508042369556	0.5614359733530718	0.5614359733530718	0.43856402664692823	0.3954491957630443
VP25.tsv	A_SCHAUKELN_trinken_können1_neu.avi	2801	1300	403	1457	right	3204	2757	0.8742197253433208	0.47152702212549874	0.47152702212549874	0.5284729778745013	0.12578027465667915
VP25.tsv	A_SITZEN_schlafen_können1_neu.avi	35	0	52	1723	right	87	1723	0.40229885057471265	0.0	0.0	1.0	0.5977011494252874
VP25.tsv	A_bauen_ESSEN_können2_neu.avi	3910	1067	1033	542	left	4943	1609	0.20898239935261986	0.3368551895587321	0.3368551895587321	0.6631448104412678	0.7910176006473801
VP25.tsv	A_fahren_BADEN_können2_neu.avi	16	1451	58	818	right	74	2269	0.7837837837837838	0.3605112384310269	0.3605112384310269	0.6394887615689732	0.21621621621621623
VP25.tsv	A_lesen_ANZIEHEN_können2_neu.avi	684	70	2535	0	left	3219	70	0.7875116495806151	0.0	0.0	1.0	0.2124883504193849
VP25.tsv	A_schaukeln_TRINKEN_können2_neu.avi	2905	0	1033	399	right	3938	399	0.2623158963941087	1.0	1.0	0.0	0.7376841036058913
VP25.tsv	A_sitzen_SCHLAFEN_können2_neu.avi	2648	265	1806	1833	left	4454	2098	0.40547822182308035	0.8736892278360343	0.8736892278360343	0.1263107721639657	0.5945217781769196
VP25.tsv	B_ANZIEHEN_lesen_mögen1_neu.avi	1667	284	2483	535	right	4150	819	0.4016867469879518	0.34676434676434675	0.34676434676434675	0.6532356532356532	0.5983132530120482
VP25.tsv	B_BADEN_fahren_mögen1_neu.avi	34	83	0	0	left	34	83	1.0	1.0	1.0	0.0	0.0
VP25.tsv	B_ESSEN_bauen_mögen1_neu.avi	283	0	4000	1267	right	4283	1267	0.06607518094793369	0.0	0.0	1.0	0.9339248190520663
VP25.tsv	B_SCHLAFEN_sitzen_mögen1_neu.avi	1630	1470	3249	821	right	4879	2291	0.3340848534535766	0.6416412047140987	0.6416412047140987	0.35835879528590137	0.6659151465464235
VP25.tsv	B_TRINKEN_schaukeln_mögen1_neu.avi	0	0	0	17	right	0	17	nan	0.0	0.0	1.0	nan
VP25.tsv	B_anziehen_LESEN_mögen2_neu.avi	2244	0	533	0	right	2777	0	0.19193374144760533	nan	nan	nan	0.8080662585523947
VP25.tsv	B_baden_FAHREN_mögen2_neu.avi	3015	805	1168	2127	left	4183	2932	0.2792254362897442	0.725443383356071	0.725443383356071	0.27455661664392905	0.7207745637102558
VP25.tsv	B_essen_BAUEN_mögen2_neu.avi	2772	2333	1264	729	right	4036	3062	0.313181367690783	0.2380796864794252	0.2380796864794252	0.7619203135205748	0.686818632309217
VP25.tsv	B_schlafen_SITZEN_mögen2_neu.avi	583	701	2316	0	left	2899	701	0.7988961710934805	0.0	0.0	1.0	0.20110382890651948
VP25.tsv	B_trinken_SChAUKELN_mögen2_neu.avi	0	602	2434	374	left	2434	976	1.0	0.3831967213114754	0.3831967213114754	0.6168032786885246	0.0


		Before	After	Bef_Aft_Tar	Target	Dis (before)	Dis (after)	Bef_Atf_Dis	T-D	T-D(B-A)
	A_ANZIEHEN	0.7875116495806151	0.0	-0.7875116495806151	0.0	0.3954491957630443	0.43856402664692823	0.0431148308838839	-0.43856402664692823	-0.830626480464499
	B_ANZIEHEN	0.4016867469879518	0.34676434676434675	-0.05492240022360506	0.34676434676434675	0.8080662585523947	nan	nan	nan	nan
	ANZIEHEN			-0.4212170249021101				-0.43856402664692823	-0.830626480464499
	A_BADEN	0.7837837837837838	0.3605112384310269	-0.4232725453527569	0.3605112384310269	1.0	nan	nan	nan	nan
	B_BADEN	1.0	1.0	0.0	1.0	0.7207745637102558	0.27455661664392905	-0.4462179470663268	0.725443383356071	0.4462179470663268
	BADEN			-0.21163627267637844				0.725443383356071	0.4462179470663268
	A_BAUEN	0.14932216905901116	0.16496490108487555	0.015642732025864386	0.16496490108487555	0.7910176006473801	0.6631448104412678	-0.1278727902061123	-0.4981799093563923	0.1435155222319767
	B_BAUEN	0.313181367690783	0.2380796864794252	-0.07510168121135777	0.2380796864794252	0.9339248190520663	1.0	0.06607518094793374	-0.7619203135205748	-0.1411768621592915
	BAUEN			-0.02972947459274669				-0.6300501114384836	0.0011693300363425918
	A_ESSEN	0.20898239935261986	0.3368551895587321	0.12787279020611225	0.3368551895587321	0.8506778309409888	0.8350350989151244	-0.015642732025864414	-0.4981799093563923	0.14351552223197667
	B_ESSEN	0.06607518094793369	0.0	-0.06607518094793369	0.0	0.686818632309217	0.7619203135205748	0.07510168121135774	-0.7619203135205748	-0.14117686215929143
	ESSEN			0.030898804629089283				-0.6300501114384836	0.0011693300363426196
	A_FAHREN	0.0	nan	nan	nan	0.21621621621621623	0.6394887615689732	0.42327254535275693	nan	nan
	B_FAHREN	0.2792254362897442	0.725443383356071	0.4462179470663267	0.725443383356071	0.0	0.0	0.0	0.725443383356071	0.4462179470663267
	FAHREN			0.4462179470663267				0.725443383356071	0.4462179470663267
	A_LESEN	0.6045508042369556	0.5614359733530718	-0.04311483088388379	0.5614359733530718	0.2124883504193849	1.0	0.7875116495806151	-0.4385640266469282	-0.8306264804644989
	B_LESEN	0.19193374144760533	nan	nan	nan	0.5983132530120482	0.6532356532356532	0.05492240022360506	nan	nan
	LESEN			-0.04311483088388379				-0.4385640266469282	-0.8306264804644989
	A_SCHAUKELN	0.8742197253433208	0.47152702212549874	-0.4026927032178221	0.47152702212549874	0.7376841036058913	0.0	-0.7376841036058913	0.47152702212549874	0.33499140038806924
	B_SCHAUKELN	1.0	0.3831967213114754	-0.6168032786885246	0.3831967213114754	nan	1.0	nan	-0.6168032786885246	nan
	SCHAUKELN			-0.5097479909531734				-0.07263812828151292	0.33499140038806924
	A_SCHLAFEN	0.40547822182308035	0.8736892278360343	0.46821100601295396	0.8736892278360343	0.5977011494252874	1.0	0.4022988505747126	-0.1263107721639657	0.06591215543824136
	B_SCHLAFEN	0.3340848534535766	0.6416412047140987	0.3075563512605221	0.6416412047140987	0.20110382890651948	1.0	0.7988961710934805	-0.3583587952859013	-0.49133981983295844
	SCHLAFEN			0.387883678636738				-0.2423347837249335	-0.21271383219735854
	A_SITZEN	0.40229885057471265	0.0	-0.40229885057471265	0.0	0.5945217781769196	0.1263107721639657	-0.46821100601295396	-0.1263107721639657	0.0659121554382413
	B_SITZEN	0.7988961710934805	0.0	-0.7988961710934805	0.0	0.6659151465464235	0.35835879528590137	-0.3075563512605221	-0.35835879528590137	-0.49133981983295844
	SITZEN			-0.6005975108340966				-0.24233478372493353	-0.21271383219735857
	A_TRINKEN	0.2623158963941087	1.0	0.7376841036058913	1.0	0.12578027465667915	0.5284729778745013	0.40269270321782213	0.4715270221254987	0.3349914003880692
	B_TRINKEN	nan	0.0	nan	0.0	0.0	0.6168032786885246	0.6168032786885246	-0.6168032786885246	nan
	TRINKEN			0.7376841036058913				-0.07263812828151295	0.3349914003880692
