TSV-FILE	AVI-File	Left_before	Left_After	Right_Before	Right_After	Fixation_Direction	Before Total	After total	Prop Before	Prop After	Prop Target	Prop Distractor	Prop Dis(before)
VP34.tsv		0	0	0	0
VP34.tsv	A_BAUEN_essen_können1_neu.avi	2341	434	1950	0	left	4291	434	0.5455604754136565	1.0	1.0	0.0	0.4544395245863435
VP34.tsv	A_FAHREN_baden_können1_neu.avi	647	366	950	18	right	1597	384	0.40513462742642453	0.953125	0.953125	0.046875	0.5948653725735754
VP34.tsv	A_LESEN_anziehen_können1_neu.avi	781	0	1868	832	right	2649	832	0.2948282370705927	0.0	0.0	1.0	0.7051717629294073
VP34.tsv	A_SCHAUKELN_trinken_können1_neu.avi	633	0	1349	0		1982	0	0.3193743693239152	nan	nan	nan	0.6806256306760847
VP34.tsv	A_SITZEN_schlafen_können1_neu.avi	1050	0	2322	0	left	3372	0	0.3113879003558719	nan	nan	nan	0.6886120996441281
VP34.tsv	A_bauen_ESSEN_können2_neu.avi	350	1799	4528	1334	right	4878	3133	0.9282492824928249	0.42578997765719756	0.42578997765719756	0.5742100223428024	0.07175071750717507
VP34.tsv	A_fahren_BADEN_können2_neu.avi	2007	0	951	0		2958	0	0.32150101419878296	nan	nan	nan	0.678498985801217
VP34.tsv	A_lesen_ANZIEHEN_können2_neu.avi	1450	0	1750	0		3200	0	0.546875	nan	nan	nan	0.453125
VP34.tsv	A_schaukeln_TRINKEN_können2_neu.avi	123	0	1450	0	right	1573	0	0.9218054672600127	nan	nan	nan	0.07819453273998729
VP34.tsv	A_sitzen_SCHLAFEN_können2_neu.avi	1016	50	2872	583	right	3888	633	0.7386831275720165	0.9210110584518167	0.9210110584518167	0.07898894154818326	0.2613168724279835
VP34.tsv	B_ANZIEHEN_lesen_mögen1_neu.avi	233	0	1517	0		1750	0	0.13314285714285715	nan	nan	nan	0.8668571428571429
VP34.tsv	B_BADEN_fahren_mögen1_neu.avi	333	0	900	91	right	1233	91	0.27007299270072993	0.0	0.0	1.0	0.7299270072992701
VP34.tsv	B_ESSEN_bauen_mögen1_neu.avi	684	1083	3556	67	right	4240	1150	0.16132075471698112	0.9417391304347826	0.9417391304347826	0.058260869565217394	0.8386792452830188
VP34.tsv	B_SCHLAFEN_sitzen_mögen1_neu.avi	2189	0	1549	533	right	3738	533	0.5856072766185125	0.0	0.0	1.0	0.4143927233814874
VP34.tsv	B_TRINKEN_schaukeln_mögen1_neu.avi	0	0	4906	3133	right	4906	3133	0.0	0.0	0.0	1.0	1.0
VP34.tsv	B_anziehen_LESEN_mögen2_neu.avi	783	0	2867	17	right	3650	17	0.7854794520547945	1.0	1.0	0.0	0.21452054794520548
VP34.tsv	B_baden_FAHREN_mögen2_neu.avi	855	467	3450	1949	left	4305	2416	0.8013937282229965	0.8067052980132451	0.8067052980132451	0.19329470198675497	0.1986062717770035
VP34.tsv	B_essen_BAUEN_mögen2_neu.avi	283	0	2250	633	right	2533	633	0.8882747729964469	1.0	1.0	0.0	0.1117252270035531
VP34.tsv	B_schlafen_SITZEN_mögen2_neu.avi	1316	66	2598	367	right	3914	433	0.6637710781808891	0.8475750577367206	0.8475750577367206	0.15242494226327943	0.3362289218191109
VP34.tsv	B_trinken_SChAUKELN_mögen2_neu.avi	0	0	3399	0	right	3399	0	1.0	nan	nan	nan	0.0


		Before	After	Bef_Aft_Tar	Target	Dis (before)	Dis (after)	Bef_Atf_Dis	T-D	T-D(B-A)
	A_ANZIEHEN	0.546875	nan	nan	nan	0.7051717629294073	1.0	0.2948282370705927	nan	nan
	B_ANZIEHEN	0.13314285714285715	nan	nan	nan	0.21452054794520548	0.0	-0.21452054794520548	nan	nan
	ANZIEHEN			nan				nan	nan
	A_BADEN	0.32150101419878296	nan	nan	nan	0.5948653725735754	0.046875	-0.5479903725735754	nan	nan
	B_BADEN	0.27007299270072993	0.0	-0.27007299270072993	0.0	0.1986062717770035	0.19329470198675497	-0.0053115697902485215	-0.19329470198675497	-0.26476142291048144
	BADEN			-0.27007299270072993				-0.19329470198675497	-0.26476142291048144
	A_BAUEN	0.5455604754136565	1.0	0.4544395245863435	1.0	0.07175071750717507	0.5742100223428024	0.5024593048356273	0.4257899776571976	-0.04801978024928377
	B_BAUEN	0.8882747729964469	1.0	0.11172522700355314	1.0	0.8386792452830188	0.058260869565217394	-0.7804183757178015	0.9417391304347826	0.8921436027213546
	BAUEN			0.2830823757949483				0.6837645540459901	0.4220619112360354
	A_ESSEN	0.9282492824928249	0.42578997765719756	-0.5024593048356274	0.42578997765719756	0.4544395245863435	0.0	-0.4544395245863435	0.42578997765719756	-0.04801978024928388
	B_ESSEN	0.16132075471698112	0.9417391304347826	0.7804183757178015	0.9417391304347826	0.1117252270035531	0.0	-0.1117252270035531	0.9417391304347826	0.8921436027213546
	ESSEN			0.13897953544108704				0.6837645540459901	0.42206191123603537
	A_FAHREN	0.40513462742642453	0.953125	0.5479903725735755	0.953125	0.678498985801217	nan	nan	nan	nan
	B_FAHREN	0.8013937282229965	0.8067052980132451	0.005311569790248605	0.8067052980132451	0.7299270072992701	1.0	0.27007299270072993	-0.1932947019867549	-0.2647614229104813
	FAHREN			0.27665097118191206				-0.1932947019867549	-0.2647614229104813
	A_LESEN	0.2948282370705927	0.0	-0.2948282370705927	0.0	0.453125	nan	nan	nan	nan
	B_LESEN	0.7854794520547945	1.0	0.21452054794520548	1.0	0.8668571428571429	nan	nan	nan	nan
	LESEN			-0.04015384456269361				nan	nan
	A_SCHAUKELN	0.3193743693239152	nan	nan	nan	0.07819453273998729	nan	nan	nan	nan
	B_SCHAUKELN	1.0	nan	nan	nan	1.0	1.0	0.0	nan	nan
	SCHAUKELN			nan				nan	nan
	A_SCHLAFEN	0.7386831275720165	0.9210110584518167	0.18232793087980026	0.9210110584518167	0.6886120996441281	nan	nan	nan	nan
	B_SCHLAFEN	0.5856072766185125	0.0	-0.5856072766185125	0.0	0.3362289218191109	0.15242494226327943	-0.18380397955583147	-0.15242494226327943	-0.40180329706268103
	SCHLAFEN			-0.20163967286935613				-0.15242494226327943	-0.40180329706268103
	A_SITZEN	0.3113879003558719	nan	nan	nan	0.2613168724279835	0.07898894154818326	-0.18232793087980026	nan	nan
	B_SITZEN	0.6637710781808891	0.8475750577367206	0.1838039795558315	0.8475750577367206	0.4143927233814874	1.0	0.5856072766185125	-0.1524249422632794	-0.40180329706268103
	SITZEN			0.1838039795558315				-0.1524249422632794	-0.40180329706268103
	A_TRINKEN	0.9218054672600127	nan	nan	nan	0.6806256306760847	nan	nan	nan	nan
	B_TRINKEN	0.0	0.0	0.0	0.0	0.0	nan	nan	nan	nan
	TRINKEN			0.0				nan	nan
