TSV-FILE	AVI-File	Left_before	Left_After	Right_Before	Right_After	Fixation_Direction	Before Total	After total	Prop Before	Prop After	Prop Target	Prop Distractor	Prop Dis(before)
VP47.tsv		0	0	0	0
VP47.tsv	A_BAUEN_essen_können1_neu.avi	16	0	17	0	left	33	0	0.48484848484848486	nan	nan	nan	0.5151515151515151
VP47.tsv	A_FAHREN_baden_können1_neu.avi	233	0	0	0		233	0	1.0	nan	nan	nan	0.0
VP47.tsv	A_LESEN_anziehen_können1_neu.avi	0	0	0	0	right	0	0	nan	nan	nan	nan	nan
VP47.tsv	A_SCHAUKELN_trinken_können1_neu.avi	0	0	17	17	right	17	17	0.0	0.0	0.0	1.0	1.0
VP47.tsv	A_SITZEN_schlafen_können1_neu.avi	52	0	0	0		52	0	1.0	nan	nan	nan	0.0
VP47.tsv	A_bauen_ESSEN_können2_neu.avi	0	0	0	0	left	0	0	nan	nan	nan	nan	nan
VP47.tsv	A_fahren_BADEN_können2_neu.avi	0	0	0	0		0	0	nan	nan	nan	nan	nan
VP47.tsv	A_lesen_ANZIEHEN_können2_neu.avi	0	0	0	18	right	0	18	nan	1.0	1.0	0.0	nan
VP47.tsv	A_schaukeln_TRINKEN_können2_neu.avi	0	0	0	0		0	0	nan	nan	nan	nan	nan
VP47.tsv	A_sitzen_SCHLAFEN_können2_neu.avi	0	0	0	0		0	0	nan	nan	nan	nan	nan
VP47.tsv	B_ANZIEHEN_lesen_mögen1_neu.avi	0	0	0	17	right	0	17	nan	0.0	0.0	1.0	nan
VP47.tsv	B_BADEN_fahren_mögen1_neu.avi	0	0	0	0	left	0	0	nan	nan	nan	nan	nan
VP47.tsv	B_ESSEN_bauen_mögen1_neu.avi	0	0	0	0		0	0	nan	nan	nan	nan	nan
VP47.tsv	B_SCHLAFEN_sitzen_mögen1_neu.avi	17	0	17	0		34	0	0.5	nan	nan	nan	0.5
VP47.tsv	B_TRINKEN_schaukeln_mögen1_neu.avi	0	0	0	0		0	0	nan	nan	nan	nan	nan
VP47.tsv	B_anziehen_LESEN_mögen2_neu.avi	0	0	65	17	right	65	17	1.0	1.0	1.0	0.0	0.0
VP47.tsv	B_baden_FAHREN_mögen2_neu.avi	0	0	0	982	right	0	982	nan	1.0	1.0	0.0	nan
VP47.tsv	B_essen_BAUEN_mögen2_neu.avi	0	0	0	0		0	0	nan	nan	nan	nan	nan
VP47.tsv	B_schlafen_SITZEN_mögen2_neu.avi	0	0	370	0	left	370	0	1.0	nan	nan	nan	0.0
VP47.tsv	B_trinken_SChAUKELN_mögen2_neu.avi	0	0	0	0		0	0	nan	nan	nan	nan	nan


		Before	After	Bef_Aft_Tar	Target	Dis (before)	Dis (after)	Bef_Atf_Dis	T-D	T-D(B-A)
	A_ANZIEHEN	nan	1.0	nan	1.0	nan	nan	nan	nan	nan
	B_ANZIEHEN	nan	0.0	nan	0.0	0.0	0.0	0.0	0.0	nan
	ANZIEHEN			nan				0.0	nan
	A_BADEN	nan	nan	nan	nan	0.0	nan	nan	nan	nan
	B_BADEN	nan	nan	nan	nan	nan	0.0	nan	nan	nan
	BADEN			nan				nan	nan
	A_BAUEN	0.48484848484848486	nan	nan	nan	nan	nan	nan	nan	nan
	B_BAUEN	nan	nan	nan	nan	nan	nan	nan	nan	nan
	BAUEN			nan				nan	nan
	A_ESSEN	nan	nan	nan	nan	0.5151515151515151	nan	nan	nan	nan
	B_ESSEN	nan	nan	nan	nan	nan	nan	nan	nan	nan
	ESSEN			nan				nan	nan
	A_FAHREN	1.0	nan	nan	nan	nan	nan	nan	nan	nan
	B_FAHREN	nan	1.0	nan	1.0	nan	nan	nan	nan	nan
	FAHREN			nan				nan	nan
	A_LESEN	nan	nan	nan	nan	nan	0.0	nan	nan	nan
	B_LESEN	1.0	1.0	0.0	1.0	nan	1.0	nan	0.0	nan
	LESEN			0.0				0.0	nan
	A_SCHAUKELN	0.0	0.0	0.0	0.0	nan	nan	nan	nan	nan
	B_SCHAUKELN	nan	nan	nan	nan	nan	nan	nan	nan	nan
	SCHAUKELN			0.0				nan	nan
	A_SCHLAFEN	nan	nan	nan	nan	0.0	nan	nan	nan	nan
	B_SCHLAFEN	0.5	nan	nan	nan	0.0	nan	nan	nan	nan
	SCHLAFEN			nan				nan	nan
	A_SITZEN	1.0	nan	nan	nan	nan	nan	nan	nan	nan
	B_SITZEN	1.0	nan	nan	nan	0.5	nan	nan	nan	nan
	SITZEN			nan				nan	nan
	A_TRINKEN	nan	nan	nan	nan	1.0	1.0	0.0	nan	nan
	B_TRINKEN	nan	nan	nan	nan	nan	nan	nan	nan	nan
	TRINKEN			nan				nan	nan
