TSV-FILE	AVI-File	Left_before	Left_After	Right_Before	Right_After	Fixation_Direction	Before Total	After total	Prop Before	Prop After	Prop Target	Prop Distractor	Prop Dis(before)
VP60.tsv		0	0	0	0
VP60.tsv	A_BAUEN_essen_können1_neu.avi	2399	0	1433	0		3832	0	0.6260438413361169	nan	nan	nan	0.3739561586638831
VP60.tsv	A_FAHREN_baden_können1_neu.avi	966	1250	367	301	right	1333	1551	0.7246811702925732	0.8059316569954867	0.8059316569954867	0.19406834300451323	0.2753188297074269
VP60.tsv	A_LESEN_anziehen_können1_neu.avi	1870	0	92	0		1962	0	0.9531090723751274	nan	nan	nan	0.046890927624872576
VP60.tsv	A_SCHAUKELN_trinken_können1_neu.avi	983	0	3935	0		4918	0	0.19987799918666124	nan	nan	nan	0.8001220008133387
VP60.tsv	A_SITZEN_schlafen_können1_neu.avi	350	483	1434	0	left	1784	483	0.1961883408071749	1.0	1.0	0.0	0.8038116591928252
VP60.tsv	A_bauen_ESSEN_können2_neu.avi	1851	0	1250	0		3101	0	0.4030957755562722	nan	nan	nan	0.5969042244437278
VP60.tsv	A_fahren_BADEN_können2_neu.avi	4255	1250	316	17	left	4571	1267	0.0691314810763509	0.013417521704814523	0.013417521704814523	0.9865824782951855	0.9308685189236491
VP60.tsv	A_lesen_ANZIEHEN_können2_neu.avi	17	0	1950	0		1967	0	0.9913573970513472	nan	nan	nan	0.00864260294865277
VP60.tsv	A_schaukeln_TRINKEN_können2_neu.avi	1618	0	1386	3133	right	3004	3133	0.4613848202396804	1.0	1.0	0.0	0.5386151797603196
VP60.tsv	A_sitzen_SCHLAFEN_können2_neu.avi	83	500	1933	0	left	2016	500	0.9588293650793651	0.0	0.0	1.0	0.04117063492063492
VP60.tsv	B_ANZIEHEN_lesen_mögen1_neu.avi	833	866	1268	2268	right	2101	3134	0.3964778676820562	0.2763241863433312	0.2763241863433312	0.7236758136566688	0.6035221323179438
VP60.tsv	B_BADEN_fahren_mögen1_neu.avi	0	0	1267	0	right	1267	0	0.0	nan	nan	nan	1.0
VP60.tsv	B_ESSEN_bauen_mögen1_neu.avi	917	0	1299	0	right	2216	0	0.4138086642599278	nan	nan	nan	0.5861913357400722
VP60.tsv	B_SCHLAFEN_sitzen_mögen1_neu.avi	250	1416	33	567	left	283	1983	0.8833922261484098	0.7140695915279879	0.7140695915279879	0.2859304084720121	0.1166077738515901
VP60.tsv	B_TRINKEN_schaukeln_mögen1_neu.avi	1166	0	1583	0		2749	0	0.4241542379046926	nan	nan	nan	0.5758457620953074
VP60.tsv	B_anziehen_LESEN_mögen2_neu.avi	0	0	1150	0	right	1150	0	1.0	nan	nan	nan	0.0
VP60.tsv	B_baden_FAHREN_mögen2_neu.avi	34	0	2434	0		2468	0	0.986223662884927	nan	nan	nan	0.013776337115072933
VP60.tsv	B_essen_BAUEN_mögen2_neu.avi	0	2166	2084	966	right	2084	3132	1.0	0.30842911877394635	0.30842911877394635	0.6915708812260536	0.0
VP60.tsv	B_schlafen_SITZEN_mögen2_neu.avi	3327	805	1467	67	left	4794	872	0.30600750938673343	0.0768348623853211	0.0768348623853211	0.9231651376146789	0.6939924906132666
VP60.tsv	B_trinken_SChAUKELN_mögen2_neu.avi	17	816	1300	2317	right	1317	3133	0.9870918754745635	0.7395467602936483	0.7395467602936483	0.26045323970635176	0.012908124525436599


		Before	After	Bef_Aft_Tar	Target	Dis (before)	Dis (after)	Bef_Atf_Dis	T-D	T-D(B-A)
	A_ANZIEHEN	0.9913573970513472	nan	nan	nan	0.046890927624872576	nan	nan	nan	nan
	B_ANZIEHEN	0.3964778676820562	0.2763241863433312	-0.12015368133872495	0.2763241863433312	0.0	nan	nan	nan	nan
	ANZIEHEN			-0.12015368133872495				nan	nan
	A_BADEN	0.0691314810763509	0.013417521704814523	-0.055713959371536385	0.013417521704814523	0.2753188297074269	0.19406834300451323	-0.08125048670291365	-0.1806508212996987	0.02553652733137727
	B_BADEN	0.0	nan	nan	nan	0.013776337115072933	nan	nan	nan	nan
	BADEN			-0.055713959371536385				-0.1806508212996987	0.02553652733137727
	A_BAUEN	0.6260438413361169	nan	nan	nan	0.5969042244437278	nan	nan	nan	nan
	B_BAUEN	1.0	0.30842911877394635	-0.6915708812260537	0.30842911877394635	0.5861913357400722	nan	nan	nan	nan
	BAUEN			-0.6915708812260537				nan	nan
	A_ESSEN	0.4030957755562722	nan	nan	nan	0.3739561586638831	nan	nan	nan	nan
	B_ESSEN	0.4138086642599278	nan	nan	nan	0.0	0.6915708812260536	0.6915708812260536	nan	nan
	ESSEN			nan				nan	nan
	A_FAHREN	0.7246811702925732	0.8059316569954867	0.08125048670291357	0.8059316569954867	0.9308685189236491	0.9865824782951855	0.05571395937153645	-0.18065082129969878	0.025536527331377123
	B_FAHREN	0.986223662884927	nan	nan	nan	1.0	nan	nan	nan	nan
	FAHREN			0.08125048670291357				-0.18065082129969878	0.025536527331377123
	A_LESEN	0.9531090723751274	nan	nan	nan	0.00864260294865277	nan	nan	nan	nan
	B_LESEN	1.0	nan	nan	nan	0.6035221323179438	0.7236758136566688	0.12015368133872495	nan	nan
	LESEN			nan				nan	nan
	A_SCHAUKELN	0.19987799918666124	nan	nan	nan	0.5386151797603196	0.0	-0.5386151797603196	nan	nan
	B_SCHAUKELN	0.9870918754745635	0.7395467602936483	-0.24754511518091515	0.7395467602936483	0.5758457620953074	nan	nan	nan	nan
	SCHAUKELN			-0.24754511518091515				nan	nan
	A_SCHLAFEN	0.9588293650793651	0.0	-0.9588293650793651	0.0	0.8038116591928252	0.0	-0.8038116591928252	0.0	-0.15501770588653996
	B_SCHLAFEN	0.8833922261484098	0.7140695915279879	-0.16932263462042196	0.7140695915279879	0.6939924906132666	0.9231651376146789	0.22917264700141227	-0.209095546086691	-0.39849528162183423
	SCHLAFEN			-0.5640759998498935				-0.1045477730433455	-0.2767564937541871
	A_SITZEN	0.1961883408071749	1.0	0.803811659192825	1.0	0.04117063492063492	1.0	0.9588293650793651	0.0	-0.15501770588654007
	B_SITZEN	0.30600750938673343	0.0768348623853211	-0.22917264700141232	0.0768348623853211	0.1166077738515901	0.2859304084720121	0.16932263462042202	-0.209095546086691	-0.39849528162183434
	SITZEN			0.28731950609570633				-0.1045477730433455	-0.2767564937541872
	A_TRINKEN	0.4613848202396804	1.0	0.5386151797603196	1.0	0.8001220008133387	nan	nan	nan	nan
	B_TRINKEN	0.4241542379046926	nan	nan	nan	0.012908124525436599	0.26045323970635176	0.24754511518091515	nan	nan
	TRINKEN			0.5386151797603196				nan	nan
