TSV-FILE	AVI-File	Left_before	Left_After	Right_Before	Right_After	Fixation_Direction	Before Total	After total	Prop Before	Prop After	Prop Target	Prop Distractor	Prop Dis(before)
VP72.tsv		0	0	0	0
VP72.tsv	A_BAUEN_essen_können1_neu.avi	1535	150	717	0	left	2252	150	0.6816163410301954	1.0	1.0	0.0	0.31838365896980464
VP72.tsv	A_FAHREN_baden_können1_neu.avi	3747	2466	317	667	left	4064	3133	0.921998031496063	0.7871050111714012	0.7871050111714012	0.21289498882859878	0.07800196850393701
VP72.tsv	A_LESEN_anziehen_können1_neu.avi	1498	0	2685	0		4183	0	0.3581161845565384	nan	nan	nan	0.6418838154434616
VP72.tsv	A_SCHAUKELN_trinken_können1_neu.avi	1700	0	1067	0	right	2767	0	0.6143838091796169	nan	nan	nan	0.38561619082038306
VP72.tsv	A_SITZEN_schlafen_können1_neu.avi	2707	1800	1434	0	left	4141	1800	0.653706834098044	1.0	1.0	0.0	0.346293165901956
VP72.tsv	A_bauen_ESSEN_können2_neu.avi	3967	83	1160	0	left	5127	83	0.2262531694948313	0.0	0.0	1.0	0.7737468305051687
VP72.tsv	A_fahren_BADEN_können2_neu.avi	3819	683	1101	0	left	4920	683	0.22378048780487805	0.0	0.0	1.0	0.776219512195122
VP72.tsv	A_lesen_ANZIEHEN_können2_neu.avi	834	0	4632	0		5466	0	0.8474204171240395	nan	nan	nan	0.1525795828759605
VP72.tsv	A_schaukeln_TRINKEN_können2_neu.avi	2616	0	2618	0		5234	0	0.50019105846389	nan	nan	nan	0.49980894153611005
VP72.tsv	A_sitzen_SCHLAFEN_können2_neu.avi	4381	3133	1650	0	left	6031	3133	0.2735864699054883	0.0	0.0	1.0	0.7264135300945117
VP72.tsv	B_ANZIEHEN_lesen_mögen1_neu.avi	1644	83	718	1050	right	2362	1133	0.6960203217612193	0.07325684024713151	0.07325684024713151	0.9267431597528685	0.3039796782387807
VP72.tsv	B_BADEN_fahren_mögen1_neu.avi	183	350	2068	1354	left	2251	1704	0.0812972012438916	0.20539906103286384	0.20539906103286384	0.7946009389671361	0.9187027987561084
VP72.tsv	B_ESSEN_bauen_mögen1_neu.avi	1586	334	568	1017	left	2154	1351	0.7363045496750232	0.2472242783123612	0.2472242783123612	0.7527757216876387	0.26369545032497677
VP72.tsv	B_SCHLAFEN_sitzen_mögen1_neu.avi	306	0	269	0		575	0	0.5321739130434783	nan	nan	nan	0.4678260869565217
VP72.tsv	B_TRINKEN_schaukeln_mögen1_neu.avi	1892	950	2195	0	left	4087	950	0.46293124541228287	1.0	1.0	0.0	0.5370687545877172
VP72.tsv	B_anziehen_LESEN_mögen2_neu.avi	34	267	185	0	left	219	267	0.8447488584474886	0.0	0.0	1.0	0.1552511415525114
VP72.tsv	B_baden_FAHREN_mögen2_neu.avi	1700	0	3695	83	right	5395	83	0.6848934198331789	1.0	1.0	0.0	0.31510658016682114
VP72.tsv	B_essen_BAUEN_mögen2_neu.avi	1051	0	1061	0		2112	0	0.5023674242424242	nan	nan	nan	0.49763257575757575
VP72.tsv	B_schlafen_SITZEN_mögen2_neu.avi	1368	0	769	0		2137	0	0.3598502573701451	nan	nan	nan	0.6401497426298549
VP72.tsv	B_trinken_SChAUKELN_mögen2_neu.avi	1038	0	3963	767	right	5001	767	0.7924415116976604	1.0	1.0	0.0	0.20755848830233953


		Before	After	Bef_Aft_Tar	Target	Dis (before)	Dis (after)	Bef_Atf_Dis	T-D	T-D(B-A)
	A_ANZIEHEN	0.8474204171240395	nan	nan	nan	0.6418838154434616	nan	nan	nan	nan
	B_ANZIEHEN	0.6960203217612193	0.07325684024713151	-0.6227634815140878	0.07325684024713151	0.1552511415525114	1.0	0.8447488584474886	-0.9267431597528685	-1.4675123399615764
	ANZIEHEN			-0.6227634815140878				-0.9267431597528685	-1.4675123399615764
	A_BADEN	0.22378048780487805	0.0	-0.22378048780487805	0.0	0.07800196850393701	0.21289498882859878	0.13489302032466177	-0.21289498882859878	-0.3586735081295398
	B_BADEN	0.0812972012438916	0.20539906103286384	0.12410185978897224	0.20539906103286384	0.31510658016682114	0.0	-0.31510658016682114	0.20539906103286384	0.4392084399557934
	BADEN			-0.049839314007952905				-0.003747963897867468	0.0402674659131268
	A_BAUEN	0.6816163410301954	1.0	0.3183836589698046	1.0	0.7737468305051687	1.0	0.22625316949483132	0.0	0.09213048947497327
	B_BAUEN	0.5023674242424242	nan	nan	nan	0.26369545032497677	0.7527757216876387	0.48908027136266197	nan	nan
	BAUEN			0.3183836589698046				0.0	0.09213048947497327
	A_ESSEN	0.2262531694948313	0.0	-0.2262531694948313	0.0	0.31838365896980464	0.0	-0.31838365896980464	0.0	0.09213048947497335
	B_ESSEN	0.7363045496750232	0.2472242783123612	-0.489080271362662	0.2472242783123612	0.49763257575757575	nan	nan	nan	nan
	ESSEN			-0.35766672042874664				0.0	0.09213048947497335
	A_FAHREN	0.921998031496063	0.7871050111714012	-0.13489302032466177	0.7871050111714012	0.776219512195122	1.0	0.22378048780487803	-0.2128949888285988	-0.3586735081295398
	B_FAHREN	0.6848934198331789	1.0	0.31510658016682114	1.0	0.9187027987561084	0.7946009389671361	-0.12410185978897226	0.20539906103286387	0.4392084399557934
	FAHREN			0.09010677992107968				-0.003747963897867468	0.0402674659131268
	A_LESEN	0.3581161845565384	nan	nan	nan	0.1525795828759605	nan	nan	nan	nan
	B_LESEN	0.8447488584474886	0.0	-0.8447488584474886	0.0	0.3039796782387807	0.9267431597528685	0.6227634815140878	-0.9267431597528685	-1.4675123399615764
	LESEN			-0.8447488584474886				-0.9267431597528685	-1.4675123399615764
	A_SCHAUKELN	0.6143838091796169	nan	nan	nan	0.49980894153611005	nan	nan	nan	nan
	B_SCHAUKELN	0.7924415116976604	1.0	0.20755848830233958	1.0	0.5370687545877172	0.0	-0.5370687545877172	1.0	0.7446272428900568
	SCHAUKELN			0.20755848830233958				1.0	0.7446272428900568
	A_SCHLAFEN	0.2735864699054883	0.0	-0.2735864699054883	0.0	0.346293165901956	0.0	-0.346293165901956	0.0	0.07270669599646773
	B_SCHLAFEN	0.5321739130434783	nan	nan	nan	0.6401497426298549	nan	nan	nan	nan
	SCHLAFEN			-0.2735864699054883				0.0	0.07270669599646773
	A_SITZEN	0.653706834098044	1.0	0.346293165901956	1.0	0.7264135300945117	1.0	0.2735864699054883	0.0	0.07270669599646773
	B_SITZEN	0.3598502573701451	nan	nan	nan	0.4678260869565217	nan	nan	nan	nan
	SITZEN			0.346293165901956				0.0	0.07270669599646773
	A_TRINKEN	0.50019105846389	nan	nan	nan	0.38561619082038306	nan	nan	nan	nan
	B_TRINKEN	0.46293124541228287	1.0	0.5370687545877171	1.0	0.20755848830233953	0.0	-0.20755848830233953	1.0	0.7446272428900567
	TRINKEN			0.5370687545877171				1.0	0.7446272428900567
