TSV-FILE	AVI-File	Left_before	Left_After	Right_Before	Right_After	Fixation_Direction	Before Total	After total	Prop Before	Prop After	Prop Target	Prop Distractor	Prop Dis(before)
VP79.tsv		0	0	0	0
VP79.tsv	A_BAUEN_essen_können1_neu.avi	0	0	0	0		0	0	nan	nan	nan	nan	nan
VP79.tsv	A_FAHREN_baden_können1_neu.avi	2999	0	17	0		3016	0	0.9943633952254642	nan	nan	nan	0.005636604774535809
VP79.tsv	A_LESEN_anziehen_können1_neu.avi	1983	0	3268	0		5251	0	0.37764235383736433	nan	nan	nan	0.6223576461626357
VP79.tsv	A_SCHAUKELN_trinken_können1_neu.avi	1167	0	3662	3033	right	4829	3033	0.24166494098156968	0.0	0.0	1.0	0.7583350590184303
VP79.tsv	A_SITZEN_schlafen_können1_neu.avi	1949	832	1902	1018	left	3851	1850	0.506102311088029	0.44972972972972974	0.44972972972972974	0.5502702702702703	0.4938976889119709
VP79.tsv	A_bauen_ESSEN_können2_neu.avi	4255	2816	900	0	left	5155	2816	0.17458777885548013	0.0	0.0	1.0	0.8254122211445198
VP79.tsv	A_fahren_BADEN_können2_neu.avi	4466	3014	457	0	left	4923	3014	0.09282957546211659	0.0	0.0	1.0	0.9071704245378834
VP79.tsv	A_lesen_ANZIEHEN_können2_neu.avi	3683	1766	1783	1367	left	5466	3133	0.32619831686791073	0.43632301308649857	0.43632301308649857	0.5636769869135014	0.6738016831320893
VP79.tsv	A_schaukeln_TRINKEN_können2_neu.avi	1649	0	3240	2033	right	4889	2033	0.6627122110861117	1.0	1.0	0.0	0.33728778891388833
VP79.tsv	A_sitzen_SCHLAFEN_können2_neu.avi	2533	384	2067	1816	right	4600	2200	0.4493478260869565	0.8254545454545454	0.8254545454545454	0.17454545454545456	0.5506521739130434
VP79.tsv	B_ANZIEHEN_lesen_mögen1_neu.avi	3200	1558	1400	1438	left	4600	2996	0.6956521739130435	0.5200267022696929	0.5200267022696929	0.47997329773030706	0.30434782608695654
VP79.tsv	B_BADEN_fahren_mögen1_neu.avi	2449	200	901	0	left	3350	200	0.731044776119403	1.0	1.0	0.0	0.268955223880597
VP79.tsv	B_ESSEN_bauen_mögen1_neu.avi	1018	0	2917	2224	right	3935	2224	0.25870393900889455	0.0	0.0	1.0	0.7412960609911055
VP79.tsv	B_SCHLAFEN_sitzen_mögen1_neu.avi	3132	0	1868	150	right	5000	150	0.6264	0.0	0.0	1.0	0.3736
VP79.tsv	B_TRINKEN_schaukeln_mögen1_neu.avi	1284	1883	3575	1150	right	4859	3033	0.26425190368388557	0.6208374546653478	0.6208374546653478	0.37916254533465216	0.7357480963161144
VP79.tsv	B_anziehen_LESEN_mögen2_neu.avi	1083	700	3651	268	right	4734	968	0.7712294043092522	0.2768595041322314	0.2768595041322314	0.7231404958677686	0.22877059569074779
VP79.tsv	B_baden_FAHREN_mögen2_neu.avi	0	17	4950	0	left	4950	17	1.0	0.0	0.0	1.0	0.0
VP79.tsv	B_essen_BAUEN_mögen2_neu.avi	717	1300	4184	1717	right	4901	3017	0.8537033258518669	0.5691083858137223	0.5691083858137223	0.43089161418627775	0.14629667414813302
VP79.tsv	B_schlafen_SITZEN_mögen2_neu.avi	505	0	1181	0		1686	0	0.7004744958481613	nan	nan	nan	0.29952550415183865
VP79.tsv	B_trinken_SChAUKELN_mögen2_neu.avi	3081	3134	1866	0	left	4947	3134	0.37719830200121285	0.0	0.0	1.0	0.6228016979987872


		Before	After	Bef_Aft_Tar	Target	Dis (before)	Dis (after)	Bef_Atf_Dis	T-D	T-D(B-A)
	A_ANZIEHEN	0.32619831686791073	0.43632301308649857	0.11012469621858784	0.43632301308649857	0.6223576461626357	nan	nan	nan	nan
	B_ANZIEHEN	0.6956521739130435	0.5200267022696929	-0.17562547164335052	0.5200267022696929	0.22877059569074779	0.7231404958677686	0.49436990017702087	-0.2031137935980757	-0.6699953718203714
	ANZIEHEN			-0.03275038771238134				-0.2031137935980757	-0.6699953718203714
	A_BADEN	0.09282957546211659	0.0	-0.09282957546211659	0.0	0.005636604774535809	nan	nan	nan	nan
	B_BADEN	0.731044776119403	1.0	0.268955223880597	1.0	0.0	1.0	1.0	0.0	-0.731044776119403
	BADEN			0.0880628242092402				0.0	-0.731044776119403
	A_BAUEN	nan	nan	nan	nan	0.8254122211445198	1.0	0.17458777885548016	nan	nan
	B_BAUEN	0.8537033258518669	0.5691083858137223	-0.2845949400381447	0.5691083858137223	0.7412960609911055	1.0	0.25870393900889455	-0.43089161418627775	-0.5432988790470392
	BAUEN			-0.2845949400381447				-0.43089161418627775	-0.5432988790470392
	A_ESSEN	0.17458777885548013	0.0	-0.17458777885548013	0.0	nan	nan	nan	nan	nan
	B_ESSEN	0.25870393900889455	0.0	-0.25870393900889455	0.0	0.14629667414813302	0.43089161418627775	0.28459494003814473	-0.43089161418627775	-0.5432988790470392
	ESSEN			-0.21664585893218735				-0.43089161418627775	-0.5432988790470392
	A_FAHREN	0.9943633952254642	nan	nan	nan	0.9071704245378834	1.0	0.09282957546211656	nan	nan
	B_FAHREN	1.0	0.0	-1.0	0.0	0.268955223880597	0.0	-0.268955223880597	0.0	-0.731044776119403
	FAHREN			-1.0				0.0	-0.731044776119403
	A_LESEN	0.37764235383736433	nan	nan	nan	0.6738016831320893	0.5636769869135014	-0.11012469621858789	nan	nan
	B_LESEN	0.7712294043092522	0.2768595041322314	-0.4943699001770208	0.2768595041322314	0.30434782608695654	0.47997329773030706	0.17562547164335052	-0.20311379359807563	-0.6699953718203713
	LESEN			-0.4943699001770208				-0.20311379359807563	-0.6699953718203713
	A_SCHAUKELN	0.24166494098156968	0.0	-0.24166494098156968	0.0	0.33728778891388833	0.0	-0.33728778891388833	0.0	0.09562284793231865
	B_SCHAUKELN	0.37719830200121285	0.0	-0.37719830200121285	0.0	0.7357480963161144	0.37916254533465216	-0.3565855509814622	-0.37916254533465216	-0.02061275101975063
	SCHAUKELN			-0.30943162149139125				-0.18958127266732608	0.03750504845628401
	A_SCHLAFEN	0.4493478260869565	0.8254545454545454	0.37610671936758894	0.8254545454545454	0.4938976889119709	0.5502702702702703	0.05637258135829942	0.27518427518427513	0.3197341380092895
	B_SCHLAFEN	0.6264	0.0	-0.6264	0.0	0.29952550415183865	nan	nan	nan	nan
	SCHLAFEN			-0.1251466403162055				0.27518427518427513	0.3197341380092895
	A_SITZEN	0.506102311088029	0.44972972972972974	-0.05637258135829931	0.44972972972972974	0.5506521739130434	0.17454545454545456	-0.3761067193675889	0.2751842751842752	0.31973413800928957
	B_SITZEN	0.7004744958481613	nan	nan	nan	0.3736	1.0	0.6264000000000001	nan	nan
	SITZEN			-0.05637258135829931				0.2751842751842752	0.31973413800928957
	A_TRINKEN	0.6627122110861117	1.0	0.33728778891388833	1.0	0.7583350590184303	1.0	0.24166494098156965	0.0	0.09562284793231868
	B_TRINKEN	0.26425190368388557	0.6208374546653478	0.3565855509814622	0.6208374546653478	0.6228016979987872	1.0	0.37719830200121285	-0.3791625453346522	-0.02061275101975063
	TRINKEN			0.34693666994767525				-0.1895812726673261	0.037505048456284024
