TSV-FILE	AVI-File	Left_before	Left_After	Right_Before	Right_After	Fixation_Direction	Before Total	After total	Prop Before	Prop After	Prop Target	Prop Distractor	Prop Dis(before)
VP56.tsv		0	0	0	0
VP56.tsv	A_BAUEN_essen_können1_neu.avi	2632	2116	2294	1718	right	4926	3834	0.534307754770605	0.5519040166927491	0.5519040166927491	0.4480959833072509	0.46569224522939506
VP56.tsv	A_FAHREN_baden_können1_neu.avi	4766	1400	350	0	left	5116	1400	0.9315871774824082	1.0	1.0	0.0	0.06841282251759187
VP56.tsv	A_LESEN_anziehen_können1_neu.avi	17	800	4814	1833	right	4831	2633	0.003518940178016974	0.3038359285985568	0.3038359285985568	0.6961640714014432	0.996481059821983
VP56.tsv	A_SCHAUKELN_trinken_können1_neu.avi	2915	833	1001	305	right	3916	1138	0.7443820224719101	0.7319859402460457	0.7319859402460457	0.2680140597539543	0.2556179775280899
VP56.tsv	A_SITZEN_schlafen_können1_neu.avi	1948	816	3191	967	right	5139	1783	0.3790620743335279	0.45765563656758274	0.45765563656758274	0.5423443634324173	0.6209379256664721
VP56.tsv	A_bauen_ESSEN_können2_neu.avi	1761	1518	557	405	right	2318	1923	0.24029335634167387	0.21060842433697347	0.21060842433697347	0.7893915756630265	0.7597066436583262
VP56.tsv	A_fahren_BADEN_können2_neu.avi	3566	3399	1255	750	left	4821	4149	0.2603194358017009	0.18076644974692696	0.18076644974692696	0.819233550253073	0.7396805641982991
VP56.tsv	A_lesen_ANZIEHEN_können2_neu.avi	2433	0	2255	1317	right	4688	1317	0.4810153583617747	1.0	1.0	0.0	0.5189846416382252
VP56.tsv	A_schaukeln_TRINKEN_können2_neu.avi	1902	1883	738	2266	right	2640	4149	0.27954545454545454	0.5461557001687154	0.5461557001687154	0.45384429983128466	0.7204545454545455
VP56.tsv	A_sitzen_SCHLAFEN_können2_neu.avi	542	1317	2102	1066	right	2644	2383	0.7950075642965204	0.4473352916491817	0.4473352916491817	0.5526647083508183	0.20499243570347958
VP56.tsv	B_ANZIEHEN_lesen_mögen1_neu.avi	1300	1149	1194	1906	right	2494	3055	0.5212510024057738	0.3761047463175123	0.3761047463175123	0.6238952536824878	0.4787489975942261
VP56.tsv	B_BADEN_fahren_mögen1_neu.avi	353	0	3901	1710	right	4254	1710	0.08298072402444757	0.0	0.0	1.0	0.9170192759755524
VP56.tsv	B_ESSEN_bauen_mögen1_neu.avi	1103	317	2667	2207	right	3770	2524	0.29257294429708225	0.12559429477020603	0.12559429477020603	0.874405705229794	0.7074270557029178
VP56.tsv	B_SCHLAFEN_sitzen_mögen1_neu.avi	3333	1149	1458	0	left	4791	1149	0.6956793988728867	1.0	1.0	0.0	0.30432060112711334
VP56.tsv	B_TRINKEN_schaukeln_mögen1_neu.avi	1501	401	3254	2275	right	4755	2676	0.3156677181913775	0.14985052316890882	0.14985052316890882	0.8501494768310912	0.6843322818086225
VP56.tsv	B_anziehen_LESEN_mögen2_neu.avi	607	0	50	0		657	0	0.076103500761035	nan	nan	nan	0.923896499238965
VP56.tsv	B_baden_FAHREN_mögen2_neu.avi	434	0	4405	2549	right	4839	2549	0.9103120479437901	1.0	1.0	0.0	0.08968795205620995
VP56.tsv	B_essen_BAUEN_mögen2_neu.avi	2166	1502	2838	1117	left	5004	2619	0.5671462829736211	0.4264986636120657	0.4264986636120657	0.5735013363879343	0.43285371702637887
VP56.tsv	B_schlafen_SITZEN_mögen2_neu.avi	1224	333	1044	2849	left	2268	3182	0.4603174603174603	0.8953488372093024	0.8953488372093024	0.10465116279069768	0.5396825396825397
VP56.tsv	B_trinken_SChAUKELN_mögen2_neu.avi	1000	865	3678	1600	right	4678	2465	0.7862334330910645	0.6490872210953347	0.6490872210953347	0.3509127789046653	0.21376656690893545


		Before	After	Bef_Aft_Tar	Target	Dis (before)	Dis (after)	Bef_Atf_Dis	T-D	T-D(B-A)
	A_ANZIEHEN	0.4810153583617747	1.0	0.5189846416382253	1.0	0.996481059821983	0.6961640714014432	-0.3003169884205398	0.3038359285985568	0.8193016300587651
	B_ANZIEHEN	0.5212510024057738	0.3761047463175123	-0.14514625608826154	0.3761047463175123	0.923896499238965	nan	nan	nan	nan
	ANZIEHEN			0.1869191927749819				0.3038359285985568	0.8193016300587651
	A_BADEN	0.2603194358017009	0.18076644974692696	-0.07955298605477396	0.18076644974692696	0.06841282251759187	0.0	-0.06841282251759187	0.18076644974692696	-0.011140163537182085
	B_BADEN	0.08298072402444757	0.0	-0.08298072402444757	0.0	0.08968795205620995	0.0	-0.08968795205620995	0.0	0.00670722803176238
	BADEN			-0.08126685503961076				0.09038322487346348	-0.0022164677527098525
	A_BAUEN	0.534307754770605	0.5519040166927491	0.01759626192214414	0.5519040166927491	0.7597066436583262	0.7893915756630265	0.02968493200470035	-0.2374875589702774	-0.012088670082556208
	B_BAUEN	0.5671462829736211	0.4264986636120657	-0.14064761936155545	0.4264986636120657	0.7074270557029178	0.874405705229794	0.16697864952687624	-0.4479070416177283	-0.3076262688884317
	BAUEN			-0.061525678719705656				-0.34269730029400286	-0.15985746948549395
	A_ESSEN	0.24029335634167387	0.21060842433697347	-0.029684932004700404	0.21060842433697347	0.46569224522939506	0.4480959833072509	-0.01759626192214414	-0.23748755897027746	-0.012088670082556263
	B_ESSEN	0.29257294429708225	0.12559429477020603	-0.16697864952687622	0.12559429477020603	0.43285371702637887	0.5735013363879343	0.14064761936155545	-0.4479070416177283	-0.3076262688884317
	ESSEN			-0.09833179076578831				-0.3426973002940029	-0.15985746948549398
	A_FAHREN	0.9315871774824082	1.0	0.06841282251759184	1.0	0.7396805641982991	0.819233550253073	0.0795529860547739	0.18076644974692702	-0.011140163537182057
	B_FAHREN	0.9103120479437901	1.0	0.08968795205620994	1.0	0.9170192759755524	1.0	0.08298072402444756	0.0	0.00670722803176238
	FAHREN			0.07905038728690089				0.09038322487346351	-0.0022164677527098386
	A_LESEN	0.003518940178016974	0.3038359285985568	0.30031698842053983	0.3038359285985568	0.5189846416382252	0.0	-0.5189846416382252	0.3038359285985568	0.819301630058765
	B_LESEN	0.076103500761035	nan	nan	nan	0.4787489975942261	0.6238952536824878	0.14514625608826165	nan	nan
	LESEN			0.30031698842053983				0.3038359285985568	0.819301630058765
	A_SCHAUKELN	0.7443820224719101	0.7319859402460457	-0.012396082225864413	0.7319859402460457	0.7204545454545455	0.45384429983128466	-0.2666102456232608	0.278141640414761	0.2542141633973964
	B_SCHAUKELN	0.7862334330910645	0.6490872210953347	-0.13714621199572985	0.6490872210953347	0.6843322818086225	0.8501494768310912	0.16581719502246872	-0.20106225573575653	-0.30296340701819857
	SCHAUKELN			-0.07477114711079713				0.038539692339502246	-0.024374621810401093
	A_SCHLAFEN	0.7950075642965204	0.4473352916491817	-0.34767227264733874	0.4473352916491817	0.6209379256664721	0.5423443634324173	-0.07859356223405478	-0.09500907178323564	-0.26907871041328396
	B_SCHLAFEN	0.6956793988728867	1.0	0.30432060112711334	1.0	0.5396825396825397	0.10465116279069768	-0.43503137689184196	0.8953488372093024	0.7393519780189552
	SCHLAFEN			-0.0216758357601127				0.40016988271303333	0.23513663380283564
	A_SITZEN	0.3790620743335279	0.45765563656758274	0.07859356223405484	0.45765563656758274	0.20499243570347958	0.5526647083508183	0.3476722726473387	-0.09500907178323553	-0.26907871041328385
	B_SITZEN	0.4603174603174603	0.8953488372093024	0.43503137689184207	0.8953488372093024	0.30432060112711334	0.0	-0.30432060112711334	0.8953488372093024	0.7393519780189555
	SITZEN			0.25681246956294845				0.40016988271303344	0.2351366338028358
	A_TRINKEN	0.27954545454545454	0.5461557001687154	0.26661024562326086	0.5461557001687154	0.2556179775280899	0.2680140597539543	0.012396082225864413	0.2781416404147611	0.25421416339739644
	B_TRINKEN	0.3156677181913775	0.14985052316890882	-0.1658171950224687	0.14985052316890882	0.21376656690893545	0.3509127789046653	0.13714621199572988	-0.2010622557357565	-0.30296340701819857
	TRINKEN			0.05039652530039608				0.03853969233950229	-0.024374621810401065
