TSV-FILE	AVI-File	Left_before	Left_After	Right_Before	Right_After	Fixation_Direction	Before Total	After total	Prop Before	Prop After	Prop Target	Prop Distractor	Prop Dis(before)
VP60.tsv		0	0	0	0
VP60.tsv	A_BAUEN_essen_können1_neu.avi	2399	0	1433	0		3832	0	0.6260438413361169	nan	nan	nan	0.3739561586638831
VP60.tsv	A_FAHREN_baden_können1_neu.avi	966	2017	367	534	right	1333	2551	0.7246811702925732	0.790670325362603	0.790670325362603	0.2093296746373971	0.2753188297074269
VP60.tsv	A_LESEN_anziehen_können1_neu.avi	1870	0	92	0		1962	0	0.9531090723751274	nan	nan	nan	0.046890927624872576
VP60.tsv	A_SCHAUKELN_trinken_können1_neu.avi	983	0	3935	0		4918	0	0.19987799918666124	nan	nan	nan	0.8001220008133387
VP60.tsv	A_SITZEN_schlafen_können1_neu.avi	350	633	1434	834	left	1784	1467	0.1961883408071749	0.43149284253578735	0.43149284253578735	0.5685071574642127	0.8038116591928252
VP60.tsv	A_bauen_ESSEN_können2_neu.avi	1851	0	1250	0		3101	0	0.4030957755562722	nan	nan	nan	0.5969042244437278
VP60.tsv	A_fahren_BADEN_können2_neu.avi	4255	1250	316	17	left	4571	1267	0.0691314810763509	0.013417521704814523	0.013417521704814523	0.9865824782951855	0.9308685189236491
VP60.tsv	A_lesen_ANZIEHEN_können2_neu.avi	17	0	1950	0		1967	0	0.9913573970513472	nan	nan	nan	0.00864260294865277
VP60.tsv	A_schaukeln_TRINKEN_können2_neu.avi	1618	550	1386	3566	right	3004	4116	0.4613848202396804	0.8663751214771623	0.8663751214771623	0.13362487852283772	0.5386151797603196
VP60.tsv	A_sitzen_SCHLAFEN_können2_neu.avi	83	633	1933	867	left	2016	1500	0.9588293650793651	0.578	0.578	0.422	0.04117063492063492
VP60.tsv	B_ANZIEHEN_lesen_mögen1_neu.avi	833	1299	1268	2768	right	2101	4067	0.3964778676820562	0.31940004917629705	0.31940004917629705	0.680599950823703	0.6035221323179438
VP60.tsv	B_BADEN_fahren_mögen1_neu.avi	0	150	1267	50	right	1267	200	0.0	0.75	0.75	0.25	1.0
VP60.tsv	B_ESSEN_bauen_mögen1_neu.avi	917	0	1299	555	right	2216	555	0.4138086642599278	0.0	0.0	1.0	0.5861913357400722
VP60.tsv	B_SCHLAFEN_sitzen_mögen1_neu.avi	250	1416	33	567	left	283	1983	0.8833922261484098	0.7140695915279879	0.7140695915279879	0.2859304084720121	0.1166077738515901
VP60.tsv	B_TRINKEN_schaukeln_mögen1_neu.avi	1166	0	1583	0		2749	0	0.4241542379046926	nan	nan	nan	0.5758457620953074
VP60.tsv	B_anziehen_LESEN_mögen2_neu.avi	0	266	1150	650	right	1150	916	1.0	0.7096069868995634	0.7096069868995634	0.2903930131004367	0.0
VP60.tsv	B_baden_FAHREN_mögen2_neu.avi	34	0	2434	0		2468	0	0.986223662884927	nan	nan	nan	0.013776337115072933
VP60.tsv	B_essen_BAUEN_mögen2_neu.avi	0	3166	2084	966	right	2084	4132	1.0	0.23378509196515004	0.23378509196515004	0.7662149080348499	0.0
VP60.tsv	B_schlafen_SITZEN_mögen2_neu.avi	3327	975	1467	67	left	4794	1042	0.30600750938673343	0.06429942418426103	0.06429942418426103	0.935700575815739	0.6939924906132666
VP60.tsv	B_trinken_SChAUKELN_mögen2_neu.avi	17	899	1300	2334	right	1317	3233	0.9870918754745635	0.7219300958861739	0.7219300958861739	0.27806990411382615	0.012908124525436599


		Before	After	Bef_Aft_Tar	Target	Dis (before)	Dis (after)	Bef_Atf_Dis	T-D	T-D(B-A)
	A_ANZIEHEN	0.9913573970513472	nan	nan	nan	0.046890927624872576	nan	nan	nan	nan
	B_ANZIEHEN	0.3964778676820562	0.31940004917629705	-0.07707781850575912	0.31940004917629705	0.0	0.2903930131004367	0.2903930131004367	0.02900703607586036	-0.3674708316061958
	ANZIEHEN			-0.07707781850575912				0.02900703607586036	-0.3674708316061958
	A_BADEN	0.0691314810763509	0.013417521704814523	-0.055713959371536385	0.013417521704814523	0.2753188297074269	0.2093296746373971	-0.06598915507002978	-0.19591215293258257	0.010275195698493396
	B_BADEN	0.0	0.75	0.75	0.75	0.013776337115072933	nan	nan	nan	nan
	BADEN			0.34714302031423183				-0.19591215293258257	0.010275195698493396
	A_BAUEN	0.6260438413361169	nan	nan	nan	0.5969042244437278	nan	nan	nan	nan
	B_BAUEN	1.0	0.23378509196515004	-0.7662149080348499	0.23378509196515004	0.5861913357400722	1.0	0.4138086642599278	-0.7662149080348499	-1.1800235722947776
	BAUEN			-0.7662149080348499				-0.7662149080348499	-1.1800235722947776
	A_ESSEN	0.4030957755562722	nan	nan	nan	0.3739561586638831	nan	nan	nan	nan
	B_ESSEN	0.4138086642599278	0.0	-0.4138086642599278	0.0	0.0	0.7662149080348499	0.7662149080348499	-0.7662149080348499	-1.1800235722947776
	ESSEN			-0.4138086642599278				-0.7662149080348499	-1.1800235722947776
	A_FAHREN	0.7246811702925732	0.790670325362603	0.06598915507002978	0.790670325362603	0.9308685189236491	0.9865824782951855	0.05571395937153645	-0.19591215293258257	0.010275195698493333
	B_FAHREN	0.986223662884927	nan	nan	nan	1.0	0.25	-0.75	nan	nan
	FAHREN			0.06598915507002978				-0.19591215293258257	0.010275195698493333
	A_LESEN	0.9531090723751274	nan	nan	nan	0.00864260294865277	nan	nan	nan	nan
	B_LESEN	1.0	0.7096069868995634	-0.29039301310043664	0.7096069868995634	0.6035221323179438	0.680599950823703	0.07707781850575912	0.029007036075860415	-0.36747083160619576
	LESEN			-0.29039301310043664				0.029007036075860415	-0.36747083160619576
	A_SCHAUKELN	0.19987799918666124	nan	nan	nan	0.5386151797603196	0.13362487852283772	-0.40499030123748186	nan	nan
	B_SCHAUKELN	0.9870918754745635	0.7219300958861739	-0.2651617795883896	0.7219300958861739	0.5758457620953074	nan	nan	nan	nan
	SCHAUKELN			-0.2651617795883896				nan	nan
	A_SCHLAFEN	0.9588293650793651	0.578	-0.38082936507936516	0.578	0.8038116591928252	0.5685071574642127	-0.2353045017286125	0.009492842535787305	-0.14552486335075265
	B_SCHLAFEN	0.8833922261484098	0.7140695915279879	-0.16932263462042196	0.7140695915279879	0.6939924906132666	0.935700575815739	0.24170808520247233	-0.22163098428775108	-0.4110307198228943
	SCHLAFEN			-0.27507599984989356				-0.10606907087598189	-0.2782777915868235
	A_SITZEN	0.1961883408071749	0.43149284253578735	0.23530450172861245	0.43149284253578735	0.04117063492063492	0.422	0.38082936507936505	0.00949284253578736	-0.1455248633507526
	B_SITZEN	0.30600750938673343	0.06429942418426103	-0.2417080852024724	0.06429942418426103	0.1166077738515901	0.2859304084720121	0.16932263462042202	-0.22163098428775108	-0.4110307198228944
	SITZEN			-0.003201791736929971				-0.10606907087598186	-0.27827779158682353
	A_TRINKEN	0.4613848202396804	0.8663751214771623	0.4049903012374819	0.8663751214771623	0.8001220008133387	nan	nan	nan	nan
	B_TRINKEN	0.4241542379046926	nan	nan	nan	0.012908124525436599	0.27806990411382615	0.26516177958838955	nan	nan
	TRINKEN			0.4049903012374819				nan	nan
