TSV-FILE	AVI-File	Left_before	Left_After	Right_Before	Right_After	Fixation_Direction	Before Total	After total	Prop Before	Prop After	Prop Target	Prop Distractor	Prop Dis(before)
VP75.tsv		0	0	0	0
VP75.tsv	A_BAUEN_essen_können1_neu.avi	1433	1232	3867	0	left	5300	1232	0.27037735849056604	1.0	1.0	0.0	0.729622641509434
VP75.tsv	A_FAHREN_baden_können1_neu.avi	3601	3500	583	0	left	4184	3500	0.86065965583174	1.0	1.0	0.0	0.13934034416826005
VP75.tsv	A_LESEN_anziehen_können1_neu.avi	800	866	4345	3267	right	5145	4133	0.1554907677356657	0.2095330268570046	0.2095330268570046	0.7904669731429954	0.8445092322643343
VP75.tsv	A_SCHAUKELN_trinken_können1_neu.avi	2140	1600	3517	0	left	5657	1600	0.3782923811207354	1.0	1.0	0.0	0.6217076188792646
VP75.tsv	A_SITZEN_schlafen_können1_neu.avi	3100	3516	1787	600	right	4887	4116	0.6343359934520155	0.8542274052478134	0.8542274052478134	0.1457725947521866	0.3656640065479844
VP75.tsv	A_bauen_ESSEN_können2_neu.avi	3780	834	0	2300	left	3780	3134	0.0	0.7338864071474155	0.7338864071474155	0.26611359285258457	1.0
VP75.tsv	A_fahren_BADEN_können2_neu.avi	167	370	86	0	left	253	370	0.33992094861660077	0.0	0.0	1.0	0.6600790513833992
VP75.tsv	A_lesen_ANZIEHEN_können2_neu.avi	3476	751	1500	1334	left	4976	2085	0.30144694533762056	0.6398081534772182	0.6398081534772182	0.3601918465227818	0.6985530546623794
VP75.tsv	A_schaukeln_TRINKEN_können2_neu.avi	0	1099	34	966	right	34	2065	1.0	0.46779661016949153	0.46779661016949153	0.5322033898305085	0.0
VP75.tsv	A_sitzen_SCHLAFEN_können2_neu.avi	4404	1433	751	1918	right	5155	3351	0.14568380213385063	0.5723664577737989	0.5723664577737989	0.42763354222620115	0.8543161978661493
VP75.tsv	B_ANZIEHEN_lesen_mögen1_neu.avi	1735	17	4001	1133	left	5736	1150	0.30247559274755925	0.014782608695652174	0.014782608695652174	0.9852173913043478	0.6975244072524407
VP75.tsv	B_BADEN_fahren_mögen1_neu.avi	616	1717	1384	2366	right	2000	4083	0.308	0.4205241244183199	0.4205241244183199	0.5794758755816801	0.692
VP75.tsv	B_ESSEN_bauen_mögen1_neu.avi	2633	1067	2763	1152	left	5396	2219	0.4879540400296516	0.4808472284812979	0.4808472284812979	0.5191527715187021	0.5120459599703484
VP75.tsv	B_SCHLAFEN_sitzen_mögen1_neu.avi	3059	817	1051	926	right	4110	1743	0.7442822384428224	0.46873207114170967	0.46873207114170967	0.5312679288582903	0.2557177615571776
VP75.tsv	B_TRINKEN_schaukeln_mögen1_neu.avi	2267	1000	3321	2683	right	5588	3683	0.4056907659269864	0.27151778441487917	0.27151778441487917	0.7284822155851208	0.5943092340730136
VP75.tsv	B_anziehen_LESEN_mögen2_neu.avi	2083	1167	2000	2033	right	4083	3200	0.48983590497183443	0.6353125	0.6353125	0.3646875	0.5101640950281655
VP75.tsv	B_baden_FAHREN_mögen2_neu.avi	1051	383	4193	3749	right	5244	4132	0.799580472921434	0.9073088092933205	0.9073088092933205	0.09269119070667957	0.20041952707856597
VP75.tsv	B_essen_BAUEN_mögen2_neu.avi	3281	3183	1751	951	left	5032	4134	0.34797297297297297	0.23004354136429608	0.23004354136429608	0.7699564586357039	0.652027027027027
VP75.tsv	B_schlafen_SITZEN_mögen2_neu.avi	2134	683	2961	2266	right	5095	2949	0.5811579980372915	0.7683960664632079	0.7683960664632079	0.23160393353679212	0.41884200196270854
VP75.tsv	B_trinken_SChAUKELN_mögen2_neu.avi	2132	33	2332	1350	right	4464	1383	0.5224014336917563	0.9761388286334056	0.9761388286334056	0.02386117136659436	0.4775985663082437


		Before	After	Bef_Aft_Tar	Target	Dis (before)	Dis (after)	Bef_Atf_Dis	T-D	T-D(B-A)
	A_ANZIEHEN	0.30144694533762056	0.6398081534772182	0.33836120813959764	0.6398081534772182	0.8445092322643343	0.7904669731429954	-0.054042259121338865	-0.1506588196657772	0.3924034672609365
	B_ANZIEHEN	0.30247559274755925	0.014782608695652174	-0.2876929840519071	0.014782608695652174	0.5101640950281655	0.3646875	-0.1454765950281655	-0.3499048913043478	-0.14221638902374156
	ANZIEHEN			0.02533411204384528				-0.25028185548506254	0.12509353911859747
	A_BADEN	0.33992094861660077	0.0	-0.33992094861660077	0.0	0.13934034416826005	0.0	-0.13934034416826005	0.0	-0.20058060444834072
	B_BADEN	0.308	0.4205241244183199	0.11252412441831988	0.4205241244183199	0.20041952707856597	0.09269119070667957	-0.1077283363718864	0.3278329337116403	0.22025246079020627
	BADEN			-0.11369841209914044				0.16391646685582015	0.009835928170932776
	A_BAUEN	0.27037735849056604	1.0	0.729622641509434	1.0	1.0	0.26611359285258457	-0.7338864071474154	0.7338864071474154	1.4635090486568494
	B_BAUEN	0.34797297297297297	0.23004354136429608	-0.11792943160867689	0.23004354136429608	0.5120459599703484	0.5191527715187021	0.0071068115483536864	-0.28910923015440604	-0.12503624315703057
	BAUEN			0.3058466049503786				0.22238858849650467	0.6692364027499094
	A_ESSEN	0.0	0.7338864071474155	0.7338864071474155	0.7338864071474155	0.729622641509434	0.0	-0.729622641509434	0.7338864071474155	1.4635090486568494
	B_ESSEN	0.4879540400296516	0.4808472284812979	-0.0071068115483536864	0.4808472284812979	0.652027027027027	0.7699564586357039	0.11792943160867697	-0.28910923015440604	-0.12503624315703066
	ESSEN			0.3633897977995309				0.22238858849650472	0.6692364027499094
	A_FAHREN	0.86065965583174	1.0	0.13934034416826002	1.0	0.6600790513833992	1.0	0.3399209486166008	0.0	-0.2005806044483408
	B_FAHREN	0.799580472921434	0.9073088092933205	0.1077283363718865	0.9073088092933205	0.692	0.5794758755816801	-0.11252412441831983	0.32783293371164035	0.22025246079020633
	FAHREN			0.12353434027007326				0.16391646685582018	0.009835928170932762
	A_LESEN	0.1554907677356657	0.2095330268570046	0.05404225912133889	0.2095330268570046	0.6985530546623794	0.3601918465227818	-0.3383612081395976	-0.1506588196657772	0.39240346726093644
	B_LESEN	0.48983590497183443	0.6353125	0.1454765950281655	0.6353125	0.6975244072524407	0.9852173913043478	0.28769298405190713	-0.3499048913043479	-0.14221638902374162
	LESEN			0.0997594270747522				-0.25028185548506254	0.1250935391185974
	A_SCHAUKELN	0.3782923811207354	1.0	0.6217076188792646	1.0	0.0	0.5322033898305085	0.5322033898305085	0.4677966101694915	0.0895042290487561
	B_SCHAUKELN	0.5224014336917563	0.9761388286334056	0.45373739494164933	0.9761388286334056	0.5943092340730136	0.7284822155851208	0.13417298151210721	0.2476566130482848	0.3195644134295421
	SCHAUKELN			0.537722506910457				0.35772661160888813	0.2045343212391491
	A_SCHLAFEN	0.14568380213385063	0.5723664577737989	0.4266826556399483	0.5723664577737989	0.3656640065479844	0.1457725947521866	-0.21989141179579783	0.4265938630216123	0.6465740674357461
	B_SCHLAFEN	0.7442822384428224	0.46873207114170967	-0.2755501673011127	0.46873207114170967	0.41884200196270854	0.23160393353679212	-0.18723806842591642	0.23712813760491755	-0.08831209887519628
	SCHLAFEN			0.07556624416941779				0.33186100031326493	0.2791309842802749
	A_SITZEN	0.6343359934520155	0.8542274052478134	0.21989141179579785	0.8542274052478134	0.8543161978661493	0.42763354222620115	-0.42668265563994817	0.42659386302161223	0.6465740674357461
	B_SITZEN	0.5811579980372915	0.7683960664632079	0.1872380684259164	0.7683960664632079	0.2557177615571776	0.5312679288582903	0.2755501673011127	0.23712813760491758	-0.08831209887519631
	SITZEN			0.20356474011085712				0.33186100031326493	0.2791309842802749
	A_TRINKEN	1.0	0.46779661016949153	-0.5322033898305085	0.46779661016949153	0.6217076188792646	0.0	-0.6217076188792646	0.46779661016949153	0.0895042290487561
	B_TRINKEN	0.4056907659269864	0.27151778441487917	-0.13417298151210721	0.27151778441487917	0.4775985663082437	0.02386117136659436	-0.45373739494164933	0.24765661304828482	0.3195644134295421
	TRINKEN			-0.33318818567130787				0.3577266116088882	0.2045343212391491
