TSV-FILE	AVI-File	Left_before	Left_After	Right_Before	Right_After	Fixation_Direction	Before Total	After total	Prop Before	Prop After	Prop Target	Prop Distractor	Prop Dis(before)
VP76.tsv		0	0	0	0
VP76.tsv	A_BAUEN_essen_können1_neu.avi	1207	118	4635	1215	right	5842	1333	0.20660732625813077	0.08852213053263316	0.08852213053263316	0.9114778694673669	0.7933926737418692
VP76.tsv	A_FAHREN_baden_können1_neu.avi	17	0	1477	3999	right	1494	3999	0.011378848728246318	0.0	0.0	1.0	0.9886211512717537
VP76.tsv	A_LESEN_anziehen_können1_neu.avi	375	862	143	157	left	518	1019	0.7239382239382239	0.845927379784102	0.845927379784102	0.15407262021589793	0.27606177606177607
VP76.tsv	A_SCHAUKELN_trinken_können1_neu.avi	1565	1550	3013	1183	left	4578	2733	0.3418523372651813	0.5671423344310281	0.5671423344310281	0.4328576655689718	0.6581476627348187
VP76.tsv	A_SITZEN_schlafen_können1_neu.avi	0	0	0	0		0	0	nan	nan	nan	nan	nan
VP76.tsv	A_bauen_ESSEN_können2_neu.avi	816	0	3750	0		4566	0	0.8212877792378449	nan	nan	nan	0.17871222076215507
VP76.tsv	A_fahren_BADEN_können2_neu.avi	716	2077	2449	948	left	3165	3025	0.7737756714060031	0.3133884297520661	0.3133884297520661	0.6866115702479338	0.22622432859399685
VP76.tsv	A_lesen_ANZIEHEN_können2_neu.avi	 No click registered
VP76.tsv	A_schaukeln_TRINKEN_können2_neu.avi	0	0	0	0		0	0	nan	nan	nan	nan	nan
VP76.tsv	A_sitzen_SCHLAFEN_können2_neu.avi	0	0	3054	0	right	3054	0	1.0	nan	nan	nan	0.0
VP76.tsv	B_ANZIEHEN_lesen_mögen1_neu.avi	820	0	2103	131	right	2923	131	0.28053369825521723	0.0	0.0	1.0	0.7194663017447828
VP76.tsv	B_BADEN_fahren_mögen1_neu.avi	 No click registered
VP76.tsv	B_ESSEN_bauen_mögen1_neu.avi	 No click registered
VP76.tsv	B_SCHLAFEN_sitzen_mögen1_neu.avi	415	0	4003	0		4418	0	0.09393390674513355	nan	nan	nan	0.9060660932548664
VP76.tsv	B_TRINKEN_schaukeln_mögen1_neu.avi	168	0	2720	1621	right	2888	1621	0.05817174515235457	0.0	0.0	1.0	0.9418282548476454
VP76.tsv	B_anziehen_LESEN_mögen2_neu.avi	0	51	0	128	left	0	179	nan	0.7150837988826816	0.7150837988826816	0.2849162011173184	nan
VP76.tsv	B_baden_FAHREN_mögen2_neu.avi	0	393	0	603	left	0	996	nan	0.6054216867469879	0.6054216867469879	0.39457831325301207	nan
VP76.tsv	B_essen_BAUEN_mögen2_neu.avi	450	0	3386	1236	right	3836	1236	0.8826903023983316	1.0	1.0	0.0	0.1173096976016684
VP76.tsv	B_schlafen_SITZEN_mögen2_neu.avi	1200	1799	2378	2033	right	3578	3832	0.6646171045276691	0.5305323590814196	0.5305323590814196	0.4694676409185804	0.3353828954723309
VP76.tsv	B_trinken_SChAUKELN_mögen2_neu.avi	409	367	3920	267	left	4329	634	0.9055209055209055	0.42113564668769715	0.42113564668769715	0.5788643533123028	0.09447909447909449


		Before	After	Bef_Aft_Tar	Target	Dis (before)	Dis (after)	Bef_Atf_Dis	T-D	T-D(B-A)
	A_ANZIEHEN	nan	nan	nan	nan	0.27606177606177607	0.15407262021589793	-0.12198915584587813	nan	nan
	B_ANZIEHEN	0.28053369825521723	0.0	-0.28053369825521723	0.0	nan	0.2849162011173184	nan	-0.2849162011173184	nan
	ANZIEHEN			-0.28053369825521723				-0.2849162011173184	nan
	A_BADEN	0.7737756714060031	0.3133884297520661	-0.460387241653937	0.3133884297520661	0.9886211512717537	1.0	0.011378848728246349	-0.6866115702479338	-0.47176609038218337
	B_BADEN	nan	nan	nan	nan	nan	0.39457831325301207	nan	nan	nan
	BADEN			-0.460387241653937				-0.6866115702479338	-0.47176609038218337
	A_BAUEN	0.20660732625813077	0.08852213053263316	-0.11808519572549761	0.08852213053263316	0.17871222076215507	nan	nan	nan	nan
	B_BAUEN	0.8826903023983316	1.0	0.11730969760166843	1.0	nan	nan	nan	nan	nan
	BAUEN			-0.00038774906191459124				nan	nan
	A_ESSEN	0.8212877792378449	nan	nan	nan	0.7933926737418692	0.9114778694673669	0.1180851957254977	nan	nan
	B_ESSEN	nan	nan	nan	nan	0.1173096976016684	0.0	-0.1173096976016684	nan	nan
	ESSEN			nan				nan	nan
	A_FAHREN	0.011378848728246318	0.0	-0.011378848728246318	0.0	0.22622432859399685	0.6866115702479338	0.46038724165393696	-0.6866115702479338	-0.47176609038218326
	B_FAHREN	nan	0.6054216867469879	nan	0.6054216867469879	nan	nan	nan	nan	nan
	FAHREN			-0.011378848728246318				-0.6866115702479338	-0.47176609038218326
	A_LESEN	0.7239382239382239	0.845927379784102	0.1219891558458781	0.845927379784102	nan	nan	nan	nan	nan
	B_LESEN	nan	0.7150837988826816	nan	0.7150837988826816	0.7194663017447828	1.0	0.28053369825521723	-0.2849162011173184	nan
	LESEN			0.1219891558458781				-0.2849162011173184	nan
	A_SCHAUKELN	0.3418523372651813	0.5671423344310281	0.2252899971658468	0.5671423344310281	nan	nan	nan	nan	nan
	B_SCHAUKELN	0.9055209055209055	0.42113564668769715	-0.4843852588332083	0.42113564668769715	0.9418282548476454	1.0	0.05817174515235457	-0.5788643533123028	-0.542557003985563
	SCHAUKELN			-0.12954763083368076				-0.5788643533123028	-0.542557003985563
	A_SCHLAFEN	1.0	nan	nan	nan	nan	nan	nan	nan	nan
	B_SCHLAFEN	0.09393390674513355	nan	nan	nan	0.3353828954723309	0.4694676409185804	0.1340847454462495	nan	nan
	SCHLAFEN			nan				nan	nan
	A_SITZEN	nan	nan	nan	nan	0.0	nan	nan	nan	nan
	B_SITZEN	0.6646171045276691	0.5305323590814196	-0.1340847454462495	0.5305323590814196	0.9060660932548664	nan	nan	nan	nan
	SITZEN			-0.1340847454462495				nan	nan
	A_TRINKEN	nan	nan	nan	nan	0.6581476627348187	0.4328576655689718	-0.2252899971658469	nan	nan
	B_TRINKEN	0.05817174515235457	0.0	-0.05817174515235457	0.0	0.09447909447909449	0.5788643533123028	0.4843852588332083	-0.5788643533123028	-0.542557003985563
	TRINKEN			-0.05817174515235457				-0.5788643533123028	-0.542557003985563
