TSV-FILE	AVI-File	Left_before	Left_After	Right_Before	Right_After	Fixation_Direction	Before Total	After total	Prop Before	Prop After	Prop Target	Prop Distractor	Prop Dis(before)
VP20.tsv		0	0	0	0
VP20.tsv	A_BAUEN_essen_können1_neu.avi	0	0	0	0		0	0	nan	nan	nan	nan	nan
VP20.tsv	A_FAHREN_baden_können1_neu.avi	1736	1067	0	0	left	1736	1067	1.0	1.0	1.0	0.0	0.0
VP20.tsv	A_LESEN_anziehen_können1_neu.avi	0	0	0	0		0	0	nan	nan	nan	nan	nan
VP20.tsv	A_SCHAUKELN_trinken_können1_neu.avi	1383	683	2451	2184	left	3834	2867	0.36071987480438183	0.2382281130101151	0.2382281130101151	0.7617718869898848	0.6392801251956182
VP20.tsv	A_SITZEN_schlafen_können1_neu.avi	1016	0	884	0		1900	0	0.5347368421052632	nan	nan	nan	0.4652631578947368
VP20.tsv	A_bauen_ESSEN_können2_neu.avi	1049	0	302	0		1351	0	0.22353811991117692	nan	nan	nan	0.7764618800888231
VP20.tsv	A_fahren_BADEN_können2_neu.avi	 No click registered
VP20.tsv	A_lesen_ANZIEHEN_können2_neu.avi	706	1197	801	0	left	1507	1197	0.5315195753151958	0.0	0.0	1.0	0.4684804246848042
VP20.tsv	A_schaukeln_TRINKEN_können2_neu.avi	0	0	269	0	left	269	0	1.0	nan	nan	nan	0.0
VP20.tsv	A_sitzen_SCHLAFEN_können2_neu.avi	17	0	1550	0		1567	0	0.9891512444160817	nan	nan	nan	0.010848755583918315
VP20.tsv	B_ANZIEHEN_lesen_mögen1_neu.avi	0	0	72	0		72	0	0.0	nan	nan	nan	1.0
VP20.tsv	B_BADEN_fahren_mögen1_neu.avi	847	916	2533	1000	left	3380	1916	0.25059171597633134	0.4780793319415449	0.4780793319415449	0.5219206680584552	0.7494082840236687
VP20.tsv	B_ESSEN_bauen_mögen1_neu.avi	1233	0	1000	0		2233	0	0.5521719659650695	nan	nan	nan	0.4478280340349306
VP20.tsv	B_SCHLAFEN_sitzen_mögen1_neu.avi	0	0	0	0	left	0	0	nan	nan	nan	nan	nan
VP20.tsv	B_TRINKEN_schaukeln_mögen1_neu.avi	 No click registered
VP20.tsv	B_anziehen_LESEN_mögen2_neu.avi	482	1091	0	217	left	482	1308	0.0	0.1659021406727829	0.1659021406727829	0.8340978593272171	1.0
VP20.tsv	B_baden_FAHREN_mögen2_neu.avi	0	17	0	1051	right	0	1068	nan	0.9840823970037453	0.9840823970037453	0.015917602996254682	nan
VP20.tsv	B_essen_BAUEN_mögen2_neu.avi	1251	33	968	0	left	2219	33	0.4362325371789094	0.0	0.0	1.0	0.5637674628210906
VP20.tsv	B_schlafen_SITZEN_mögen2_neu.avi	495	0	450	0		945	0	0.47619047619047616	nan	nan	nan	0.5238095238095238
VP20.tsv	B_trinken_SChAUKELN_mögen2_neu.avi	0	0	0	0		0	0	nan	nan	nan	nan	nan


		Before	After	Bef_Aft_Tar	Target	Dis (before)	Dis (after)	Bef_Atf_Dis	T-D	T-D(B-A)
	A_ANZIEHEN	0.5315195753151958	0.0	-0.5315195753151958	0.0	nan	nan	nan	nan	nan
	B_ANZIEHEN	0.0	nan	nan	nan	1.0	0.8340978593272171	-0.16590214067278286	nan	nan
	ANZIEHEN			-0.5315195753151958				nan	nan
	A_BADEN	nan	nan	nan	nan	0.0	0.0	0.0	nan	nan
	B_BADEN	0.25059171597633134	0.4780793319415449	0.22748761596521355	0.4780793319415449	nan	0.015917602996254682	nan	0.46216172894529023	nan
	BADEN			0.22748761596521355				0.46216172894529023	nan
	A_BAUEN	nan	nan	nan	nan	0.7764618800888231	nan	nan	nan	nan
	B_BAUEN	0.4362325371789094	0.0	-0.4362325371789094	0.0	0.4478280340349306	nan	nan	nan	nan
	BAUEN			-0.4362325371789094				nan	nan
	A_ESSEN	0.22353811991117692	nan	nan	nan	nan	nan	nan	nan	nan
	B_ESSEN	0.5521719659650695	nan	nan	nan	0.5637674628210906	1.0	0.4362325371789094	nan	nan
	ESSEN			nan				nan	nan
	A_FAHREN	1.0	1.0	0.0	1.0	nan	nan	nan	nan	nan
	B_FAHREN	nan	0.9840823970037453	nan	0.9840823970037453	0.7494082840236687	0.5219206680584552	-0.2274876159652135	0.4621617289452902	nan
	FAHREN			0.0				0.4621617289452902	nan
	A_LESEN	nan	nan	nan	nan	0.4684804246848042	1.0	0.5315195753151958	nan	nan
	B_LESEN	0.0	0.1659021406727829	0.1659021406727829	0.1659021406727829	1.0	nan	nan	nan	nan
	LESEN			0.1659021406727829				nan	nan
	A_SCHAUKELN	0.36071987480438183	0.2382281130101151	-0.12249176179426674	0.2382281130101151	0.0	nan	nan	nan	nan
	B_SCHAUKELN	nan	nan	nan	nan	nan	nan	nan	nan	nan
	SCHAUKELN			-0.12249176179426674				nan	nan
	A_SCHLAFEN	0.9891512444160817	nan	nan	nan	0.4652631578947368	nan	nan	nan	nan
	B_SCHLAFEN	nan	nan	nan	nan	0.5238095238095238	nan	nan	nan	nan
	SCHLAFEN			nan				nan	nan
	A_SITZEN	0.5347368421052632	nan	nan	nan	0.010848755583918315	nan	nan	nan	nan
	B_SITZEN	0.47619047619047616	nan	nan	nan	nan	nan	nan	nan	nan
	SITZEN			nan				nan	nan
	A_TRINKEN	1.0	nan	nan	nan	0.6392801251956182	0.7617718869898848	0.12249176179426668	nan	nan
	B_TRINKEN	nan	nan	nan	nan	nan	nan	nan	nan	nan
	TRINKEN			nan				nan	nan
