TSV-FILE	AVI-File	Left_before	Left_After	Right_Before	Right_After	Fixation_Direction	Before Total	After total	Prop Before	Prop After	Prop Target	Prop Distractor	Prop Dis(before)
VP21.tsv		0	0	0	0
VP21.tsv	A_BAUEN_essen_können1_neu.avi	2446	0	2451	3472	right	4897	3472	0.4994894833571574	0.0	0.0	1.0	0.5005105166428425
VP21.tsv	A_FAHREN_baden_können1_neu.avi	 No click registered
VP21.tsv	A_LESEN_anziehen_können1_neu.avi	51	0	0	16	right	51	16	1.0	0.0	0.0	1.0	0.0
VP21.tsv	A_SCHAUKELN_trinken_können1_neu.avi	83	266	2256	853	left	2339	1119	0.03548525010688328	0.23771224307417338	0.23771224307417338	0.7622877569258266	0.9645147498931167
VP21.tsv	A_SITZEN_schlafen_können1_neu.avi	383	0	1934	0	left	2317	0	0.16529995684074233	nan	nan	nan	0.8347000431592576
VP21.tsv	A_bauen_ESSEN_können2_neu.avi	0	0	0	0		0	0	nan	nan	nan	nan	nan
VP21.tsv	A_fahren_BADEN_können2_neu.avi	1749	230	717	124	right	2466	354	0.29075425790754256	0.3502824858757062	0.3502824858757062	0.6497175141242938	0.7092457420924574
VP21.tsv	A_lesen_ANZIEHEN_können2_neu.avi	1804	404	16	0	left	1820	404	0.008791208791208791	0.0	0.0	1.0	0.9912087912087912
VP21.tsv	A_schaukeln_TRINKEN_können2_neu.avi	974	0	0	0		974	0	0.0	nan	nan	nan	1.0
VP21.tsv	A_sitzen_SCHLAFEN_können2_neu.avi	36	0	3	0	right	39	0	0.07692307692307693	nan	nan	nan	0.9230769230769231
VP21.tsv	B_ANZIEHEN_lesen_mögen1_neu.avi	417	86	3154	0	left	3571	86	0.11677401288154579	1.0	1.0	0.0	0.8832259871184542
VP21.tsv	B_BADEN_fahren_mögen1_neu.avi	367	0	1834	0	left	2201	0	0.1667423898228078	nan	nan	nan	0.8332576101771921
VP21.tsv	B_ESSEN_bauen_mögen1_neu.avi	0	1717	0	375	left	0	2092	nan	0.8207456978967496	0.8207456978967496	0.17925430210325047	nan
VP21.tsv	B_SCHLAFEN_sitzen_mögen1_neu.avi	616	0	318	0		934	0	0.6595289079229122	nan	nan	nan	0.3404710920770878
VP21.tsv	B_TRINKEN_schaukeln_mögen1_neu.avi	0	34	0	0	left	0	34	nan	1.0	1.0	0.0	nan
VP21.tsv	B_anziehen_LESEN_mögen2_neu.avi	 No click registered
VP21.tsv	B_baden_FAHREN_mögen2_neu.avi	0	0	1500	0		1500	0	1.0	nan	nan	nan	0.0
VP21.tsv	B_essen_BAUEN_mögen2_neu.avi	0	0	972	1375	right	972	1375	1.0	1.0	1.0	0.0	0.0
VP21.tsv	B_schlafen_SITZEN_mögen2_neu.avi	0	233	0	645	right	0	878	nan	0.734624145785877	0.734624145785877	0.265375854214123	nan
VP21.tsv	B_trinken_SChAUKELN_mögen2_neu.avi	16	73	0	0	left	16	73	0.0	0.0	0.0	1.0	1.0


		Before	After	Bef_Aft_Tar	Target	Dis (before)	Dis (after)	Bef_Atf_Dis	T-D	T-D(B-A)
	A_ANZIEHEN	0.008791208791208791	0.0	-0.008791208791208791	0.0	0.0	1.0	1.0	-1.0	-1.0087912087912088
	B_ANZIEHEN	0.11677401288154579	1.0	0.8832259871184542	1.0	nan	nan	nan	nan	nan
	ANZIEHEN			0.43721738916362274				-1.0	-1.0087912087912088
	A_BADEN	0.29075425790754256	0.3502824858757062	0.05952822796816365	0.3502824858757062	nan	nan	nan	nan	nan
	B_BADEN	0.1667423898228078	nan	nan	nan	0.0	nan	nan	nan	nan
	BADEN			0.05952822796816365				nan	nan
	A_BAUEN	0.4994894833571574	0.0	-0.4994894833571574	0.0	nan	nan	nan	nan	nan
	B_BAUEN	1.0	1.0	0.0	1.0	nan	0.17925430210325047	nan	0.8207456978967496	nan
	BAUEN			-0.2497447416785787				0.8207456978967496	nan
	A_ESSEN	nan	nan	nan	nan	0.5005105166428425	1.0	0.4994894833571575	nan	nan
	B_ESSEN	nan	0.8207456978967496	nan	0.8207456978967496	0.0	0.0	0.0	0.8207456978967496	nan
	ESSEN			nan				0.8207456978967496	nan
	A_FAHREN	nan	nan	nan	nan	0.7092457420924574	0.6497175141242938	-0.059528227968163594	nan	nan
	B_FAHREN	1.0	nan	nan	nan	0.8332576101771921	nan	nan	nan	nan
	FAHREN			nan				nan	nan
	A_LESEN	1.0	0.0	-1.0	0.0	0.9912087912087912	1.0	0.00879120879120876	-1.0	-1.0087912087912088
	B_LESEN	nan	nan	nan	nan	0.8832259871184542	0.0	-0.8832259871184542	nan	nan
	LESEN			-1.0				-1.0	-1.0087912087912088
	A_SCHAUKELN	0.03548525010688328	0.23771224307417338	0.2022269929672901	0.23771224307417338	1.0	nan	nan	nan	nan
	B_SCHAUKELN	0.0	0.0	0.0	0.0	nan	0.0	nan	0.0	nan
	SCHAUKELN			0.10111349648364505				0.0	nan
	A_SCHLAFEN	0.07692307692307693	nan	nan	nan	0.8347000431592576	nan	nan	nan	nan
	B_SCHLAFEN	0.6595289079229122	nan	nan	nan	nan	0.265375854214123	nan	nan	nan
	SCHLAFEN			nan				nan	nan
	A_SITZEN	0.16529995684074233	nan	nan	nan	0.9230769230769231	nan	nan	nan	nan
	B_SITZEN	nan	0.734624145785877	nan	0.734624145785877	0.3404710920770878	nan	nan	nan	nan
	SITZEN			nan				nan	nan
	A_TRINKEN	0.0	nan	nan	nan	0.9645147498931167	0.7622877569258266	-0.20222699296729008	nan	nan
	B_TRINKEN	nan	1.0	nan	1.0	1.0	1.0	0.0	0.0	nan
	TRINKEN			nan				0.0	nan
