TSV-FILE	AVI-File	Left_before	Left_After	Right_Before	Right_After	Fixation_Direction	Before Total	After total	Prop Before	Prop After	Prop Target	Prop Distractor	Prop Dis(before)
VP22.tsv		0	0	0	0
VP22.tsv	A_BAUEN_essen_können1_neu.avi	2083	0	0	0		2083	0	1.0	nan	nan	nan	0.0
VP22.tsv	A_FAHREN_baden_können1_neu.avi	3940	0	0	0		3940	0	1.0	nan	nan	nan	0.0
VP22.tsv	A_LESEN_anziehen_können1_neu.avi	1134	0	149	0	left	1283	0	0.8838659392049883	nan	nan	nan	0.11613406079501169
VP22.tsv	A_SCHAUKELN_trinken_können1_neu.avi	2064	483	1870	684	right	3934	1167	0.5246568378240977	0.4138817480719794	0.4138817480719794	0.5861182519280206	0.4753431621759024
VP22.tsv	A_SITZEN_schlafen_können1_neu.avi	0	17	456	232	right	456	249	0.0	0.06827309236947791	0.06827309236947791	0.9317269076305221	1.0
VP22.tsv	A_bauen_ESSEN_können2_neu.avi	17	0	0	49	right	17	49	0.0	1.0	1.0	0.0	1.0
VP22.tsv	A_fahren_BADEN_können2_neu.avi	0	489	0	0	left	0	489	nan	0.0	0.0	1.0	nan
VP22.tsv	A_lesen_ANZIEHEN_können2_neu.avi	933	0	150	0		1083	0	0.13850415512465375	nan	nan	nan	0.8614958448753463
VP22.tsv	A_schaukeln_TRINKEN_können2_neu.avi	0	0	0	0		0	0	nan	nan	nan	nan	nan
VP22.tsv	A_sitzen_SCHLAFEN_können2_neu.avi	16	0	17	0		33	0	0.5151515151515151	nan	nan	nan	0.48484848484848486
VP22.tsv	B_ANZIEHEN_lesen_mögen1_neu.avi	0	17	0	244	right	0	261	nan	0.06513409961685823	0.06513409961685823	0.9348659003831418	nan
VP22.tsv	B_BADEN_fahren_mögen1_neu.avi	1227	0	3676	907	right	4903	907	0.2502549459514583	0.0	0.0	1.0	0.7497450540485417
VP22.tsv	B_ESSEN_bauen_mögen1_neu.avi	0	0	0	0		0	0	nan	nan	nan	nan	nan
VP22.tsv	B_SCHLAFEN_sitzen_mögen1_neu.avi	0	0	0	0		0	0	nan	nan	nan	nan	nan
VP22.tsv	B_TRINKEN_schaukeln_mögen1_neu.avi	635	0	3880	100	right	4515	100	0.1406423034330011	0.0	0.0	1.0	0.8593576965669989
VP22.tsv	B_anziehen_LESEN_mögen2_neu.avi	0	0	17	0		17	0	1.0	nan	nan	nan	0.0
VP22.tsv	B_baden_FAHREN_mögen2_neu.avi	0	0	199	0		199	0	1.0	nan	nan	nan	0.0
VP22.tsv	B_essen_BAUEN_mögen2_neu.avi	1049	965	1250	1270	right	2299	2235	0.5437146585471945	0.5682326621923938	0.5682326621923938	0.4317673378076063	0.4562853414528056
VP22.tsv	B_schlafen_SITZEN_mögen2_neu.avi	0	0	0	0		0	0	nan	nan	nan	nan	nan
VP22.tsv	B_trinken_SChAUKELN_mögen2_neu.avi	367	0	2316	0		2683	0	0.8632128214685054	nan	nan	nan	0.1367871785314946


		Before	After	Bef_Aft_Tar	Target	Dis (before)	Dis (after)	Bef_Atf_Dis	T-D	T-D(B-A)
	A_ANZIEHEN	0.13850415512465375	nan	nan	nan	0.11613406079501169	nan	nan	nan	nan
	B_ANZIEHEN	nan	0.06513409961685823	nan	0.06513409961685823	0.0	nan	nan	nan	nan
	ANZIEHEN			nan				nan	nan
	A_BADEN	nan	0.0	nan	0.0	0.0	nan	nan	nan	nan
	B_BADEN	0.2502549459514583	0.0	-0.2502549459514583	0.0	0.0	nan	nan	nan	nan
	BADEN			-0.2502549459514583				nan	nan
	A_BAUEN	1.0	nan	nan	nan	1.0	0.0	-1.0	nan	nan
	B_BAUEN	0.5437146585471945	0.5682326621923938	0.024518003645199293	0.5682326621923938	nan	nan	nan	nan	nan
	BAUEN			0.024518003645199293				nan	nan
	A_ESSEN	0.0	1.0	1.0	1.0	0.0	nan	nan	nan	nan
	B_ESSEN	nan	nan	nan	nan	0.4562853414528056	0.4317673378076063	-0.024518003645199293	nan	nan
	ESSEN			1.0				nan	nan
	A_FAHREN	1.0	nan	nan	nan	nan	1.0	nan	nan	nan
	B_FAHREN	1.0	nan	nan	nan	0.7497450540485417	1.0	0.25025494595145825	nan	nan
	FAHREN			nan				nan	nan
	A_LESEN	0.8838659392049883	nan	nan	nan	0.8614958448753463	nan	nan	nan	nan
	B_LESEN	1.0	nan	nan	nan	nan	0.9348659003831418	nan	nan	nan
	LESEN			nan				nan	nan
	A_SCHAUKELN	0.5246568378240977	0.4138817480719794	-0.11077508975211825	0.4138817480719794	nan	nan	nan	nan	nan
	B_SCHAUKELN	0.8632128214685054	nan	nan	nan	0.8593576965669989	1.0	0.1406423034330011	nan	nan
	SCHAUKELN			-0.11077508975211825				nan	nan
	A_SCHLAFEN	0.5151515151515151	nan	nan	nan	1.0	0.9317269076305221	-0.06827309236947787	nan	nan
	B_SCHLAFEN	nan	nan	nan	nan	nan	nan	nan	nan	nan
	SCHLAFEN			nan				nan	nan
	A_SITZEN	0.0	0.06827309236947791	0.06827309236947791	0.06827309236947791	0.48484848484848486	nan	nan	nan	nan
	B_SITZEN	nan	nan	nan	nan	nan	nan	nan	nan	nan
	SITZEN			0.06827309236947791				nan	nan
	A_TRINKEN	nan	nan	nan	nan	0.4753431621759024	0.5861182519280206	0.1107750897521182	nan	nan
	B_TRINKEN	0.1406423034330011	0.0	-0.1406423034330011	0.0	0.1367871785314946	nan	nan	nan	nan
	TRINKEN			-0.1406423034330011				nan	nan
