TSV-FILE	AVI-File	Left_before	Left_After	Right_Before	Right_After	Fixation_Direction	Before Total	After total	Prop Before	Prop After	Prop Target	Prop Distractor	Prop Dis(before)
VP24.tsv		0	0	0	0
VP24.tsv	A_BAUEN_essen_können1_neu.avi	4015	2816	835	800	right	4850	3616	0.8278350515463917	0.7787610619469026	0.7787610619469026	0.22123893805309736	0.17216494845360825
VP24.tsv	A_FAHREN_baden_können1_neu.avi	2616	1300	1117	466	right	3733	1766	0.7007768550763461	0.7361268403171007	0.7361268403171007	0.2638731596828992	0.29922314492365387
VP24.tsv	A_LESEN_anziehen_können1_neu.avi	582	0	4591	3582	right	5173	3582	0.11250724917842644	0.0	0.0	1.0	0.8874927508215735
VP24.tsv	A_SCHAUKELN_trinken_können1_neu.avi	1115	1598	2584	1070	right	3699	2668	0.3014328196809949	0.5989505247376312	0.5989505247376312	0.40104947526236884	0.6985671803190051
VP24.tsv	A_SITZEN_schlafen_können1_neu.avi	417	33	3149	716	right	3566	749	0.1169377453729669	0.044058744993324434	0.044058744993324434	0.9559412550066756	0.8830622546270331
VP24.tsv	A_bauen_ESSEN_können2_neu.avi	3871	737	883	584	left	4754	1321	0.18573832562053008	0.4420893262679788	0.4420893262679788	0.5579106737320212	0.81426167437947
VP24.tsv	A_fahren_BADEN_können2_neu.avi	3083	2068	1234	1567	left	4317	3635	0.285846652768126	0.4310866574965612	0.4310866574965612	0.5689133425034388	0.714153347231874
VP24.tsv	A_lesen_ANZIEHEN_können2_neu.avi	683	0	4580	3616	right	5263	3616	0.8702261067832034	1.0	1.0	0.0	0.1297738932167965
VP24.tsv	A_schaukeln_TRINKEN_können2_neu.avi	815	1200	1934	868	right	2749	2068	0.7035285558384867	0.4197292069632495	0.4197292069632495	0.5802707930367504	0.2964714441615133
VP24.tsv	A_sitzen_SCHLAFEN_können2_neu.avi	1625	633	2460	1034	left	4085	1667	0.602203182374541	0.6202759448110378	0.6202759448110378	0.3797240551889622	0.397796817625459
VP24.tsv	B_ANZIEHEN_lesen_mögen1_neu.avi	2931	575	2101	555	left	5032	1130	0.5824721780604134	0.5088495575221239	0.5088495575221239	0.4911504424778761	0.41752782193958665
VP24.tsv	B_BADEN_fahren_mögen1_neu.avi	767	17	2983	2416	left	3750	2433	0.20453333333333334	0.006987258528565557	0.006987258528565557	0.9930127414714345	0.7954666666666667
VP24.tsv	B_ESSEN_bauen_mögen1_neu.avi	0	0	3717	753	right	3717	753	0.0	0.0	0.0	1.0	1.0
VP24.tsv	B_SCHLAFEN_sitzen_mögen1_neu.avi	952	0	1249	372	right	2201	372	0.4325306678782372	0.0	0.0	1.0	0.5674693321217629
VP24.tsv	B_TRINKEN_schaukeln_mögen1_neu.avi	683	620	2000	2300	left	2683	2920	0.25456578456951173	0.21232876712328766	0.21232876712328766	0.7876712328767124	0.7454342154304883
VP24.tsv	B_anziehen_LESEN_mögen2_neu.avi	2516	0	1267	0	left	3783	0	0.33491937615648953	nan	nan	nan	0.6650806238435104
VP24.tsv	B_baden_FAHREN_mögen2_neu.avi	1733	1700	3220	1218	right	4953	2918	0.6501110438118313	0.4174091843728581	0.4174091843728581	0.5825908156271419	0.3498889561881688
VP24.tsv	B_essen_BAUEN_mögen2_neu.avi	1210	800	3350	1639	right	4560	2439	0.7346491228070176	0.6719967199671997	0.6719967199671997	0.3280032800328003	0.26535087719298245
VP24.tsv	B_schlafen_SITZEN_mögen2_neu.avi	0	568	52	2000	right	52	2568	1.0	0.778816199376947	0.778816199376947	0.22118380062305296	0.0
VP24.tsv	B_trinken_SChAUKELN_mögen2_neu.avi	1382	283	2533	686	right	3915	969	0.6469987228607919	0.7079463364293086	0.7079463364293086	0.29205366357069146	0.35300127713920815


		Before	After	Bef_Aft_Tar	Target	Dis (before)	Dis (after)	Bef_Atf_Dis	T-D	T-D(B-A)
	A_ANZIEHEN	0.8702261067832034	1.0	0.12977389321679655	1.0	0.8874927508215735	1.0	0.11250724917842647	0.0	0.017266644038370083
	B_ANZIEHEN	0.5824721780604134	0.5088495575221239	-0.0736226205382895	0.5088495575221239	0.6650806238435104	nan	nan	nan	nan
	ANZIEHEN			0.02807563633925353				0.0	0.017266644038370083
	A_BADEN	0.285846652768126	0.4310866574965612	0.14524000472843523	0.4310866574965612	0.29922314492365387	0.2638731596828992	-0.03534998524075467	0.16721349781366202	0.1805899899691899
	B_BADEN	0.20453333333333334	0.006987258528565557	-0.1975460748047678	0.006987258528565557	0.3498889561881688	0.5825908156271419	0.2327018594389731	-0.5756035570985764	-0.43024793424374086
	BADEN			-0.02615303503816628				-0.20419502964245717	-0.12482897213727548
	A_BAUEN	0.8278350515463917	0.7787610619469026	-0.049073989599489054	0.7787610619469026	0.81426167437947	0.5579106737320212	-0.25635100064744876	0.22085038821488145	0.2072770110479597
	B_BAUEN	0.7346491228070176	0.6719967199671997	-0.06265240283981788	0.6719967199671997	1.0	1.0	0.0	-0.3280032800328003	-0.06265240283981788
	BAUEN			-0.055863196219653466				-0.053576445908959436	0.07231230410407091
	A_ESSEN	0.18573832562053008	0.4420893262679788	0.25635100064744876	0.4420893262679788	0.17216494845360825	0.22123893805309736	0.04907398959948911	0.22085038821488145	0.20727701104795965
	B_ESSEN	0.0	0.0	0.0	0.0	0.26535087719298245	0.3280032800328003	0.06265240283981788	-0.3280032800328003	-0.06265240283981788
	ESSEN			0.12817550032372438				-0.053576445908959436	0.07231230410407088
	A_FAHREN	0.7007768550763461	0.7361268403171007	0.03534998524075461	0.7361268403171007	0.714153347231874	0.5689133425034388	-0.14524000472843512	0.1672134978136619	0.18058998996918973
	B_FAHREN	0.6501110438118313	0.4174091843728581	-0.23270185943897315	0.4174091843728581	0.7954666666666667	0.9930127414714345	0.19754607480476782	-0.5756035570985764	-0.43024793424374097
	FAHREN			-0.09867593709910927				-0.20419502964245723	-0.12482897213727562
	A_LESEN	0.11250724917842644	0.0	-0.11250724917842644	0.0	0.1297738932167965	0.0	-0.1297738932167965	0.0	0.017266644038370055
	B_LESEN	0.33491937615648953	nan	nan	nan	0.41752782193958665	0.4911504424778761	0.07362262053828944	nan	nan
	LESEN			-0.11250724917842644				0.0	0.017266644038370055
	A_SCHAUKELN	0.3014328196809949	0.5989505247376312	0.29751770505663633	0.5989505247376312	0.2964714441615133	0.5802707930367504	0.28379934887523717	0.018679731700880775	0.01371835618139916
	B_SCHAUKELN	0.6469987228607919	0.7079463364293086	0.060947613568516745	0.7079463364293086	0.7454342154304883	0.7876712328767124	0.0422370174462241	-0.07972489644740377	0.018710596122292644
	SCHAUKELN			0.17923265931257654				-0.030522582373261498	0.016214476151845902
	A_SCHLAFEN	0.602203182374541	0.6202759448110378	0.018072762436496803	0.6202759448110378	0.8830622546270331	0.9559412550066756	0.07287900037964246	-0.33566531019563783	-0.05480623794314565
	B_SCHLAFEN	0.4325306678782372	0.0	-0.4325306678782372	0.0	0.0	0.22118380062305296	0.22118380062305296	-0.22118380062305296	-0.6537144685012901
	SCHLAFEN			-0.2072289527208702				-0.2784245554093454	-0.3542603532222179
	A_SITZEN	0.1169377453729669	0.044058744993324434	-0.07287900037964247	0.044058744993324434	0.397796817625459	0.3797240551889622	-0.018072762436496803	-0.3356653101956377	-0.054806237943145666
	B_SITZEN	1.0	0.778816199376947	-0.22118380062305298	0.778816199376947	0.5674693321217629	1.0	0.43253066787823713	-0.22118380062305298	-0.6537144685012901
	SITZEN			-0.14703140050134772				-0.27842455540934535	-0.3542603532222179
	A_TRINKEN	0.7035285558384867	0.4197292069632495	-0.2837993488752372	0.4197292069632495	0.6985671803190051	0.40104947526236884	-0.2975177050566363	0.018679731700880664	0.01371835618139905
	B_TRINKEN	0.25456578456951173	0.21232876712328766	-0.04223701744622407	0.21232876712328766	0.35300127713920815	0.29205366357069146	-0.06094761356851669	-0.0797248964474038	0.018710596122292616
	TRINKEN			-0.16301818316073063				-0.030522582373261567	0.016214476151845833
