TSV-FILE	AVI-File	Left_before	Left_After	Right_Before	Right_After	Fixation_Direction	Before Total	After total	Prop Before	Prop After	Prop Target	Prop Distractor	Prop Dis(before)
VP30.tsv		0	0	0	0
VP30.tsv	A_BAUEN_essen_können1_neu.avi	4483	2267	536	1367	right	5019	3634	0.8932058178920104	0.623830489818382	0.623830489818382	0.37616951018161804	0.10679418210798963
VP30.tsv	A_FAHREN_baden_können1_neu.avi	4945	3633	0	0	left	4945	3633	1.0	1.0	1.0	0.0	0.0
VP30.tsv	A_LESEN_anziehen_können1_neu.avi	1638	1966	2950	1667	left	4588	3633	0.35701830863121187	0.5411505642719515	0.5411505642719515	0.4588494357280484	0.6429816913687881
VP30.tsv	A_SCHAUKELN_trinken_können1_neu.avi	1333	1150	3357	2484	right	4690	3634	0.2842217484008529	0.31645569620253167	0.31645569620253167	0.6835443037974683	0.7157782515991471
VP30.tsv	A_SITZEN_schlafen_können1_neu.avi	2350	777	750	819	right	3100	1596	0.7580645161290323	0.4868421052631579	0.4868421052631579	0.5131578947368421	0.24193548387096775
VP30.tsv	A_bauen_ESSEN_können2_neu.avi	3116	2267	1067	0	left	4183	2267	0.2550800860626345	0.0	0.0	1.0	0.7449199139373656
VP30.tsv	A_fahren_BADEN_können2_neu.avi	 No click registered
VP30.tsv	A_lesen_ANZIEHEN_können2_neu.avi	4554	1355	34	145	left	4588	1500	0.0074106364428945075	0.09666666666666666	0.09666666666666666	0.9033333333333333	0.9925893635571055
VP30.tsv	A_schaukeln_TRINKEN_können2_neu.avi	4880	2067	267	83	left	5147	2150	0.0518748785700408	0.038604651162790694	0.038604651162790694	0.9613953488372093	0.9481251214299592
VP30.tsv	A_sitzen_SCHLAFEN_können2_neu.avi	2585	2116	2040	1517	right	4625	3633	0.4410810810810811	0.4175612441508395	0.4175612441508395	0.5824387558491605	0.5589189189189189
VP30.tsv	B_ANZIEHEN_lesen_mögen1_neu.avi	2251	2549	2735	784	right	4986	3333	0.45146409947853994	0.7647764776477648	0.7647764776477648	0.23522352235223523	0.5485359005214601
VP30.tsv	B_BADEN_fahren_mögen1_neu.avi	1906	1417	2817	1383	left	4723	2800	0.4035570611899217	0.5060714285714286	0.5060714285714286	0.49392857142857144	0.5964429388100784
VP30.tsv	B_ESSEN_bauen_mögen1_neu.avi	1401	883	2968	0	left	4369	883	0.32066834515907533	1.0	1.0	0.0	0.6793316548409247
VP30.tsv	B_SCHLAFEN_sitzen_mögen1_neu.avi	887	1934	3684	1700	left	4571	3634	0.19404944213520017	0.5321959273527793	0.5321959273527793	0.4678040726472207	0.8059505578647999
VP30.tsv	B_TRINKEN_schaukeln_mögen1_neu.avi	4656	3099	16	534	right	4672	3633	0.9965753424657534	0.8530140379851362	0.8530140379851362	0.14698596201486375	0.003424657534246575
VP30.tsv	B_anziehen_LESEN_mögen2_neu.avi	3983	2999	976	634	right	4959	3633	0.19681387376487194	0.17451142306633635	0.17451142306633635	0.8254885769336636	0.8031861262351281
VP30.tsv	B_baden_FAHREN_mögen2_neu.avi	1100	1167	3529	2466	right	4629	3633	0.7623676820047527	0.6787778695293146	0.6787778695293146	0.3212221304706854	0.23763231799524737
VP30.tsv	B_essen_BAUEN_mögen2_neu.avi	1533	1582	2717	2051	left	4250	3633	0.6392941176470588	0.5645472061657033	0.5645472061657033	0.43545279383429675	0.36070588235294115
VP30.tsv	B_schlafen_SITZEN_mögen2_neu.avi	2340	1399	2281	2234	right	4621	3633	0.49361610041116644	0.6149187998898982	0.6149187998898982	0.38508120011010183	0.5063838995888336
VP30.tsv	B_trinken_SChAUKELN_mögen2_neu.avi	4367	1694	0	51	right	4367	1745	0.0	0.029226361031518624	0.029226361031518624	0.9707736389684813	1.0


		Before	After	Bef_Aft_Tar	Target	Dis (before)	Dis (after)	Bef_Atf_Dis	T-D	T-D(B-A)
	A_ANZIEHEN	0.0074106364428945075	0.09666666666666666	0.08925603022377215	0.09666666666666666	0.6429816913687881	0.4588494357280484	-0.1841322556407397	-0.36218276906138175	0.27338828586451186
	B_ANZIEHEN	0.45146409947853994	0.7647764776477648	0.31331237816922486	0.7647764776477648	0.8031861262351281	0.8254885769336636	0.022302450698535536	-0.060712099285898824	0.2910099274706893
	ANZIEHEN			0.2012842041964985				-0.2114474341736403	0.2821991066676006
	A_BADEN	nan	nan	nan	nan	0.0	0.0	0.0	nan	nan
	B_BADEN	0.4035570611899217	0.5060714285714286	0.10251436738150693	0.5060714285714286	0.23763231799524737	0.3212221304706854	0.08358981247543801	0.18484929810074324	0.018924554906068924
	BADEN			0.10251436738150693				0.18484929810074324	0.018924554906068924
	A_BAUEN	0.8932058178920104	0.623830489818382	-0.2693753280736284	0.623830489818382	0.7449199139373656	1.0	0.25508008606263444	-0.37616951018161804	-0.5244554141362628
	B_BAUEN	0.6392941176470588	0.5645472061657033	-0.07474691148135548	0.5645472061657033	0.6793316548409247	0.0	-0.6793316548409247	0.5645472061657033	0.6045847433595692
	BAUEN			-0.17206111977749194				0.09418884799204263	0.0400646646116532
	A_ESSEN	0.2550800860626345	0.0	-0.2550800860626345	0.0	0.10679418210798963	0.37616951018161804	0.2693753280736284	-0.37616951018161804	-0.524455414136263
	B_ESSEN	0.32066834515907533	1.0	0.6793316548409247	1.0	0.36070588235294115	0.43545279383429675	0.0747469114813556	0.5645472061657033	0.6045847433595691
	ESSEN			0.21212578438914512				0.09418884799204263	0.04006466461165309
	A_FAHREN	1.0	1.0	0.0	1.0	nan	nan	nan	nan	nan
	B_FAHREN	0.7623676820047527	0.6787778695293146	-0.08358981247543806	0.6787778695293146	0.5964429388100784	0.49392857142857144	-0.10251436738150693	0.1848492981007432	0.01892455490606887
	FAHREN			-0.04179490623771903				0.1848492981007432	0.01892455490606887
	A_LESEN	0.35701830863121187	0.5411505642719515	0.18413225564073965	0.5411505642719515	0.9925893635571055	0.9033333333333333	-0.08925603022377215	-0.3621827690613818	0.2733882858645118
	B_LESEN	0.19681387376487194	0.17451142306633635	-0.022302450698535592	0.17451142306633635	0.5485359005214601	0.23522352235223523	-0.31331237816922486	-0.06071209928589888	0.29100992747068927
	LESEN			0.08091490247110203				-0.21144743417364034	0.2821991066676005
	A_SCHAUKELN	0.2842217484008529	0.31645569620253167	0.032233947801678764	0.31645569620253167	0.9481251214299592	0.9613953488372093	0.013270227407250146	-0.6449396526346777	0.018963720394428618
	B_SCHAUKELN	0.0	0.029226361031518624	0.029226361031518624	0.029226361031518624	0.003424657534246575	0.14698596201486375	0.14356130448061716	-0.11775960098334512	-0.11433494344909853
	SCHAUKELN			0.030730154416598696				-0.3813496268090114	-0.047685611527334956
	A_SCHLAFEN	0.4410810810810811	0.4175612441508395	-0.023519836930241567	0.4175612441508395	0.24193548387096775	0.5131578947368421	0.2712224108658744	-0.09559665058600264	-0.29474224779611596
	B_SCHLAFEN	0.19404944213520017	0.5321959273527793	0.3381464852175792	0.5321959273527793	0.5063838995888336	0.38508120011010183	-0.12130269947873173	0.1471147272426775	0.4594491846963109
	SCHLAFEN			0.1573133241436688				0.025759038328337425	0.08235346845009747
	A_SITZEN	0.7580645161290323	0.4868421052631579	-0.27122241086587434	0.4868421052631579	0.5589189189189189	0.5824387558491605	0.023519836930241622	-0.09559665058600259	-0.29474224779611596
	B_SITZEN	0.49361610041116644	0.6149187998898982	0.12130269947873173	0.6149187998898982	0.8059505578647999	0.4678040726472207	-0.3381464852175792	0.1471147272426775	0.4594491846963109
	SITZEN			-0.0749598556935713				0.025759038328337452	0.08235346845009747
	A_TRINKEN	0.0518748785700408	0.038604651162790694	-0.013270227407250104	0.038604651162790694	0.7157782515991471	0.6835443037974683	-0.032233947801678764	-0.6449396526346777	0.01896372039442866
	B_TRINKEN	0.9965753424657534	0.8530140379851362	-0.1435613044806172	0.8530140379851362	1.0	0.9707736389684813	-0.029226361031518655	-0.11775960098334515	-0.11433494344909856
	TRINKEN			-0.07841576594393365				-0.3813496268090114	-0.04768561152733495
