TSV-FILE	AVI-File	Left_before	Left_After	Right_Before	Right_After	Fixation_Direction	Before Total	After total	Prop Before	Prop After	Prop Target	Prop Distractor	Prop Dis(before)
VP52.tsv		0	0	0	0
VP52.tsv	A_BAUEN_essen_können1_neu.avi	4980	2001	368	0	left	5348	2001	0.931189229618549	1.0	1.0	0.0	0.068810770381451
VP52.tsv	A_FAHREN_baden_können1_neu.avi	4539	3638	508	0	left	5047	3638	0.8993461462254805	1.0	1.0	0.0	0.10065385377451952
VP52.tsv	A_LESEN_anziehen_können1_neu.avi	2375	1751	2296	1750	left	4671	3501	0.5084564333119247	0.5001428163381891	0.5001428163381891	0.4998571836618109	0.49154356668807536
VP52.tsv	A_SCHAUKELN_trinken_können1_neu.avi	2937	1949	1727	734	left	4664	2683	0.6297169811320755	0.7264256429370108	0.7264256429370108	0.2735743570629892	0.37028301886792453
VP52.tsv	A_SITZEN_schlafen_können1_neu.avi	2117	1496	2614	501	left	4731	1997	0.4474741069541323	0.7491236855282924	0.7491236855282924	0.25087631447170755	0.5525258930458676
VP52.tsv	A_bauen_ESSEN_können2_neu.avi	1450	2039	0	0	left	1450	2039	0.0	0.0	0.0	1.0	1.0
VP52.tsv	A_fahren_BADEN_können2_neu.avi	3698	3633	1033	0	left	4731	3633	0.21834707250052843	0.0	0.0	1.0	0.7816529274994716
VP52.tsv	A_lesen_ANZIEHEN_können2_neu.avi	2601	877	165	781	left	2766	1658	0.0596529284164859	0.47104945717732205	0.47104945717732205	0.528950542822678	0.940347071583514
VP52.tsv	A_schaukeln_TRINKEN_können2_neu.avi	1830	1200	1666	2300	left	3496	3500	0.4765446224256293	0.6571428571428571	0.6571428571428571	0.34285714285714286	0.5234553775743707
VP52.tsv	A_sitzen_SCHLAFEN_können2_neu.avi	5211	3151	0	17	left	5211	3168	0.0	0.005366161616161616	0.005366161616161616	0.9946338383838383	1.0
VP52.tsv	B_ANZIEHEN_lesen_mögen1_neu.avi	4363	0	848	1673	right	5211	1673	0.8372673191326041	0.0	0.0	1.0	0.1627326808673959
VP52.tsv	B_BADEN_fahren_mögen1_neu.avi	2001	2433	2240	0	left	4241	2433	0.47182268332940347	1.0	1.0	0.0	0.5281773166705965
VP52.tsv	B_ESSEN_bauen_mögen1_neu.avi	1950	2236	3323	367	left	5273	2603	0.3698084581831974	0.8590088359585094	0.8590088359585094	0.1409911640414906	0.6301915418168026
VP52.tsv	B_SCHLAFEN_sitzen_mögen1_neu.avi	2002	2641	1017	484	left	3019	3125	0.6631334879099039	0.84512	0.84512	0.15488	0.33686651209009605
VP52.tsv	B_TRINKEN_schaukeln_mögen1_neu.avi	2269	1715	2640	936	right	4909	2651	0.4622122631900591	0.6469256884194644	0.6469256884194644	0.35307431158053565	0.537787736809941
VP52.tsv	B_anziehen_LESEN_mögen2_neu.avi	4858	1003	584	70	left	5442	1073	0.10731348768834988	0.06523765144454799	0.06523765144454799	0.934762348555452	0.8926865123116501
VP52.tsv	B_baden_FAHREN_mögen2_neu.avi	2752	2767	733	750	left	3485	3517	0.2103299856527977	0.21324992891669037	0.21324992891669037	0.7867500710833096	0.7896700143472023
VP52.tsv	B_essen_BAUEN_mögen2_neu.avi	4567	3633	0	0	left	4567	3633	0.0	0.0	0.0	1.0	1.0
VP52.tsv	B_schlafen_SITZEN_mögen2_neu.avi	4303	2748	350	0	left	4653	2748	0.07522028798624543	0.0	0.0	1.0	0.9247797120137545
VP52.tsv	B_trinken_SChAUKELN_mögen2_neu.avi	2237	1915	2467	1718	left	4704	3633	0.5244472789115646	0.47288742086429947	0.47288742086429947	0.5271125791357005	0.4755527210884354


		Before	After	Bef_Aft_Tar	Target	Dis (before)	Dis (after)	Bef_Atf_Dis	T-D	T-D(B-A)
	A_ANZIEHEN	0.0596529284164859	0.47104945717732205	0.41139652876083616	0.47104945717732205	0.49154356668807536	0.4998571836618109	0.00831361697373556	-0.02880772648448887	0.4030829117871006
	B_ANZIEHEN	0.8372673191326041	0.0	-0.8372673191326041	0.0	0.8926865123116501	0.934762348555452	0.042075836243801956	-0.934762348555452	-0.8793431553764061
	ANZIEHEN			-0.21293539518588397				-0.4817850375199705	-0.23813012179465273
	A_BADEN	0.21834707250052843	0.0	-0.21834707250052843	0.0	0.10065385377451952	0.0	-0.10065385377451952	0.0	-0.11769321872600891
	B_BADEN	0.47182268332940347	1.0	0.5281773166705965	1.0	0.7896700143472023	0.7867500710833096	-0.002919943263892666	0.21324992891669037	0.5310972599344892
	BADEN			0.15491512208503405				0.10662496445834518	0.20670202060424014
	A_BAUEN	0.931189229618549	1.0	0.068810770381451	1.0	1.0	1.0	0.0	0.0	0.068810770381451
	B_BAUEN	0.0	0.0	0.0	0.0	0.6301915418168026	0.1409911640414906	-0.489200377775312	-0.1409911640414906	0.489200377775312
	BAUEN			0.0344053851907255				-0.0704955820207453	0.2790055740783815
	A_ESSEN	0.0	0.0	0.0	0.0	0.068810770381451	0.0	-0.068810770381451	0.0	0.068810770381451
	B_ESSEN	0.3698084581831974	0.8590088359585094	0.489200377775312	0.8590088359585094	1.0	1.0	0.0	-0.1409911640414906	0.489200377775312
	ESSEN			0.244600188887656				-0.0704955820207453	0.2790055740783815
	A_FAHREN	0.8993461462254805	1.0	0.10065385377451952	1.0	0.7816529274994716	1.0	0.21834707250052843	0.0	-0.11769321872600891
	B_FAHREN	0.2103299856527977	0.21324992891669037	0.002919943263892666	0.21324992891669037	0.5281773166705965	0.0	-0.5281773166705965	0.21324992891669037	0.5310972599344892
	FAHREN			0.05178689851920609				0.10662496445834518	0.20670202060424014
	A_LESEN	0.5084564333119247	0.5001428163381891	-0.00831361697373556	0.5001428163381891	0.940347071583514	0.528950542822678	-0.4113965287608361	-0.028807726484488816	0.40308291178710054
	B_LESEN	0.10731348768834988	0.06523765144454799	-0.04207583624380189	0.06523765144454799	0.1627326808673959	1.0	0.8372673191326041	-0.934762348555452	-0.879343155376406
	LESEN			-0.025194726608768724				-0.4817850375199704	-0.2381301217946527
	A_SCHAUKELN	0.6297169811320755	0.7264256429370108	0.09670866180493531	0.7264256429370108	0.5234553775743707	0.34285714285714286	-0.1805982347172278	0.383568500079868	0.2773068965221631
	B_SCHAUKELN	0.5244472789115646	0.47288742086429947	-0.05155985804726515	0.47288742086429947	0.537787736809941	0.35307431158053565	-0.18471342522940531	0.11981310928376382	0.13315356718214016
	SCHAUKELN			0.022574401878835082				0.2516908046818159	0.20523023185215164
	A_SCHLAFEN	0.0	0.005366161616161616	0.005366161616161616	0.005366161616161616	0.5525258930458676	0.25087631447170755	-0.3016495785741601	-0.24551015285554595	0.3070157401903217
	B_SCHLAFEN	0.6631334879099039	0.84512	0.1819865120900961	0.84512	0.9247797120137545	1.0	0.07522028798624547	-0.15488000000000002	0.10676622410385062
	SCHLAFEN			0.09367633685312884				-0.20019507642777298	0.20689098214708615
	A_SITZEN	0.4474741069541323	0.7491236855282924	0.30164957857416014	0.7491236855282924	1.0	0.9946338383838383	-0.005366161616161658	-0.2455101528555459	0.3070157401903218
	B_SITZEN	0.07522028798624543	0.0	-0.07522028798624543	0.0	0.33686651209009605	0.15488	-0.18198651209009606	-0.15488	0.10676622410385063
	SITZEN			0.11321464529395736				-0.20019507642777296	0.2068909821470862
	A_TRINKEN	0.4765446224256293	0.6571428571428571	0.18059823471722786	0.6571428571428571	0.37028301886792453	0.2735743570629892	-0.09670866180493531	0.3835685000798679	0.27730689652216317
	B_TRINKEN	0.4622122631900591	0.6469256884194644	0.18471342522940531	0.6469256884194644	0.4755527210884354	0.5271125791357005	0.05155985804726515	0.11981310928376387	0.13315356718214016
	TRINKEN			0.18265582997331659				0.2516908046818159	0.20523023185215167
