TSV-FILE	AVI-File	Left_before	Left_After	Right_Before	Right_After	Fixation_Direction	Before Total	After total	Prop Before	Prop After	Prop Target	Prop Distractor	Prop Dis(before)
VP58.tsv		0	0	0	0
VP58.tsv	A_BAUEN_essen_können1_neu.avi	0	34	0	66	left	0	100	nan	0.34	0.34	0.66	nan
VP58.tsv	A_FAHREN_baden_können1_neu.avi	17	0	0	0		17	0	1.0	nan	nan	nan	0.0
VP58.tsv	A_LESEN_anziehen_können1_neu.avi	0	0	0	0		0	0	nan	nan	nan	nan	nan
VP58.tsv	A_SCHAUKELN_trinken_können1_neu.avi	0	0	0	318	right	0	318	nan	0.0	0.0	1.0	nan
VP58.tsv	A_SITZEN_schlafen_können1_neu.avi	88	0	117	0		205	0	0.4292682926829268	nan	nan	nan	0.5707317073170731
VP58.tsv	A_bauen_ESSEN_können2_neu.avi	36	500	33	17	right	69	517	0.4782608695652174	0.03288201160541586	0.03288201160541586	0.9671179883945842	0.5217391304347826
VP58.tsv	A_fahren_BADEN_können2_neu.avi	70	17	0	0	left	70	17	0.0	0.0	0.0	1.0	1.0
VP58.tsv	A_lesen_ANZIEHEN_können2_neu.avi	0	0	0	17	right	0	17	nan	1.0	1.0	0.0	nan
VP58.tsv	A_schaukeln_TRINKEN_können2_neu.avi	16	0	416	0		432	0	0.9629629629629629	nan	nan	nan	0.037037037037037035
VP58.tsv	A_sitzen_SCHLAFEN_können2_neu.avi	169	0	185	0		354	0	0.5225988700564972	nan	nan	nan	0.4774011299435028
VP58.tsv	B_ANZIEHEN_lesen_mögen1_neu.avi	938	222	0	151	left	938	373	1.0	0.5951742627345844	0.5951742627345844	0.40482573726541554	0.0
VP58.tsv	B_BADEN_fahren_mögen1_neu.avi	83	17	0	0	left	83	17	1.0	1.0	1.0	0.0	0.0
VP58.tsv	B_ESSEN_bauen_mögen1_neu.avi	17	645	199	202	left	216	847	0.0787037037037037	0.7615112160566706	0.7615112160566706	0.2384887839433294	0.9212962962962963
VP58.tsv	B_SCHLAFEN_sitzen_mögen1_neu.avi	169	17	0	0	left	169	17	1.0	1.0	1.0	0.0	0.0
VP58.tsv	B_TRINKEN_schaukeln_mögen1_neu.avi	115	84	0	51	left	115	135	1.0	0.6222222222222222	0.6222222222222222	0.37777777777777777	0.0
VP58.tsv	B_anziehen_LESEN_mögen2_neu.avi	1052	716	0	0	left	1052	716	0.0	0.0	0.0	1.0	1.0
VP58.tsv	B_baden_FAHREN_mögen2_neu.avi	254	0	17	0		271	0	0.06273062730627306	nan	nan	nan	0.9372693726937269
VP58.tsv	B_essen_BAUEN_mögen2_neu.avi	522	199	0	0	left	522	199	0.0	0.0	0.0	1.0	1.0
VP58.tsv	B_schlafen_SITZEN_mögen2_neu.avi	16	0	0	0		16	0	0.0	nan	nan	nan	1.0
VP58.tsv	B_trinken_SChAUKELN_mögen2_neu.avi	114	0	0	0		114	0	0.0	nan	nan	nan	1.0


		Before	After	Bef_Aft_Tar	Target	Dis (before)	Dis (after)	Bef_Atf_Dis	T-D	T-D(B-A)
	A_ANZIEHEN	nan	1.0	nan	1.0	nan	nan	nan	nan	nan
	B_ANZIEHEN	1.0	0.5951742627345844	-0.4048257372654156	0.5951742627345844	1.0	1.0	0.0	-0.4048257372654156	-0.4048257372654156
	ANZIEHEN			-0.4048257372654156				-0.4048257372654156	-0.4048257372654156
	A_BADEN	0.0	0.0	0.0	0.0	0.0	nan	nan	nan	nan
	B_BADEN	1.0	1.0	0.0	1.0	0.9372693726937269	nan	nan	nan	nan
	BADEN			0.0				nan	nan
	A_BAUEN	nan	0.34	nan	0.34	0.5217391304347826	0.9671179883945842	0.4453788579598016	-0.6271179883945841	nan
	B_BAUEN	0.0	0.0	0.0	0.0	0.9212962962962963	0.2384887839433294	-0.6828075123529669	-0.2384887839433294	0.6828075123529669
	BAUEN			0.0				-0.43280338616895675	0.6828075123529669
	A_ESSEN	0.4782608695652174	0.03288201160541586	-0.44537885795980153	0.03288201160541586	nan	0.66	nan	-0.6271179883945842	nan
	B_ESSEN	0.0787037037037037	0.7615112160566706	0.6828075123529669	0.7615112160566706	1.0	1.0	0.0	-0.2384887839433294	0.6828075123529669
	ESSEN			0.11871432719658268				-0.4328033861689568	0.6828075123529669
	A_FAHREN	1.0	nan	nan	nan	1.0	1.0	0.0	nan	nan
	B_FAHREN	0.06273062730627306	nan	nan	nan	0.0	0.0	0.0	nan	nan
	FAHREN			nan				nan	nan
	A_LESEN	nan	nan	nan	nan	nan	0.0	nan	nan	nan
	B_LESEN	0.0	0.0	0.0	0.0	0.0	0.40482573726541554	0.40482573726541554	-0.40482573726541554	-0.40482573726541554
	LESEN			0.0				-0.40482573726541554	-0.40482573726541554
	A_SCHAUKELN	nan	0.0	nan	0.0	0.037037037037037035	nan	nan	nan	nan
	B_SCHAUKELN	0.0	nan	nan	nan	0.0	0.37777777777777777	0.37777777777777777	nan	nan
	SCHAUKELN			nan				nan	nan
	A_SCHLAFEN	0.5225988700564972	nan	nan	nan	0.5707317073170731	nan	nan	nan	nan
	B_SCHLAFEN	1.0	1.0	0.0	1.0	1.0	nan	nan	nan	nan
	SCHLAFEN			0.0				nan	nan
	A_SITZEN	0.4292682926829268	nan	nan	nan	0.4774011299435028	nan	nan	nan	nan
	B_SITZEN	0.0	nan	nan	nan	0.0	0.0	0.0	nan	nan
	SITZEN			nan				nan	nan
	A_TRINKEN	0.9629629629629629	nan	nan	nan	nan	1.0	nan	nan	nan
	B_TRINKEN	1.0	0.6222222222222222	-0.37777777777777777	0.6222222222222222	1.0	nan	nan	nan	nan
	TRINKEN			-0.37777777777777777				nan	nan
