TSV-FILE	AVI-File	Left_before	Left_After	Right_Before	Right_After	Fixation_Direction	Before Total	After total	Prop Before	Prop After	Prop Target	Prop Distractor	Prop Dis(before)
VP62.tsv		0	0	0	0
VP62.tsv	A_BAUEN_essen_können1_neu.avi	803	433	569	167	right	1372	600	0.5852769679300291	0.7216666666666667	0.7216666666666667	0.2783333333333333	0.41472303206997085
VP62.tsv	A_FAHREN_baden_können1_neu.avi	0	0	0	0		0	0	nan	nan	nan	nan	nan
VP62.tsv	A_LESEN_anziehen_können1_neu.avi	1505	268	1040	250	right	2545	518	0.5913555992141454	0.5173745173745173	0.5173745173745173	0.4826254826254826	0.4086444007858546
VP62.tsv	A_SCHAUKELN_trinken_können1_neu.avi	2151	17	2528	1783	right	4679	1800	0.45971361402008976	0.009444444444444445	0.009444444444444445	0.9905555555555555	0.5402863859799102
VP62.tsv	A_SITZEN_schlafen_können1_neu.avi	600	0	4260	951	right	4860	951	0.12345679012345678	0.0	0.0	1.0	0.8765432098765432
VP62.tsv	A_bauen_ESSEN_können2_neu.avi	1349	235	2936	1736	right	4285	1971	0.6851808634772462	0.8807711821410451	0.8807711821410451	0.11922881785895484	0.3148191365227538
VP62.tsv	A_fahren_BADEN_können2_neu.avi	1083	967	1516	1449	right	2599	2416	0.5833012697191228	0.5997516556291391	0.5997516556291391	0.40024834437086093	0.4166987302808773
VP62.tsv	A_lesen_ANZIEHEN_können2_neu.avi	0	516	1528	1402	right	1528	1918	1.0	0.7309697601668405	0.7309697601668405	0.26903023983315955	0.0
VP62.tsv	A_schaukeln_TRINKEN_können2_neu.avi	0	167	0	1420	left	0	1587	nan	0.8947700063011972	0.8947700063011972	0.10522999369880277	nan
VP62.tsv	A_sitzen_SCHLAFEN_können2_neu.avi	500	0	3354	870	right	3854	870	0.8702646600934094	1.0	1.0	0.0	0.12973533990659056
VP62.tsv	B_ANZIEHEN_lesen_mögen1_neu.avi	33	0	2102	1234	right	2135	1234	0.015456674473067917	0.0	0.0	1.0	0.9845433255269321
VP62.tsv	B_BADEN_fahren_mögen1_neu.avi	0	0	315	0		315	0	0.0	nan	nan	nan	1.0
VP62.tsv	B_ESSEN_bauen_mögen1_neu.avi	1050	0	3949	766	right	4999	766	0.21004200840168033	0.0	0.0	1.0	0.7899579915983197
VP62.tsv	B_SCHLAFEN_sitzen_mögen1_neu.avi	434	0	1302	0	right	1736	0	0.25	nan	nan	nan	0.75
VP62.tsv	B_TRINKEN_schaukeln_mögen1_neu.avi	0	0	4444	3135	right	4444	3135	0.0	0.0	0.0	1.0	1.0
VP62.tsv	B_anziehen_LESEN_mögen2_neu.avi	83	0	450	0	left	533	0	0.8442776735459663	nan	nan	nan	0.15572232645403378
VP62.tsv	B_baden_FAHREN_mögen2_neu.avi	0	0	0	670	right	0	670	nan	1.0	1.0	0.0	nan
VP62.tsv	B_essen_BAUEN_mögen2_neu.avi	0	0	4985	184	right	4985	184	1.0	1.0	1.0	0.0	0.0
VP62.tsv	B_schlafen_SITZEN_mögen2_neu.avi	0	48	0	1694	right	0	1742	nan	0.9724454649827784	0.9724454649827784	0.027554535017221583	nan
VP62.tsv	B_trinken_SChAUKELN_mögen2_neu.avi	0	0	4423	3633	right	4423	3633	1.0	1.0	1.0	0.0	0.0


		Before	After	Bef_Aft_Tar	Target	Dis (before)	Dis (after)	Bef_Atf_Dis	T-D	T-D(B-A)
	A_ANZIEHEN	1.0	0.7309697601668405	-0.26903023983315955	0.7309697601668405	0.4086444007858546	0.4826254826254826	0.07398108183962798	0.24834427754135785	-0.34301132167278753
	B_ANZIEHEN	0.015456674473067917	0.0	-0.015456674473067917	0.0	0.15572232645403378	nan	nan	nan	nan
	ANZIEHEN			-0.14224345715311373				0.24834427754135785	-0.34301132167278753
	A_BADEN	0.5833012697191228	0.5997516556291391	0.016450385910016352	0.5997516556291391	nan	nan	nan	nan	nan
	B_BADEN	0.0	nan	nan	nan	nan	0.0	nan	nan	nan
	BADEN			0.016450385910016352				nan	nan
	A_BAUEN	0.5852769679300291	0.7216666666666667	0.13638969873663753	0.7216666666666667	0.3148191365227538	0.11922881785895484	-0.19559031866379895	0.6024378488077118	0.3319800174004365
	B_BAUEN	1.0	1.0	0.0	1.0	0.7899579915983197	1.0	0.2100420084016803	0.0	-0.2100420084016803
	BAUEN			0.06819484936831877				0.3012189244038559	0.06096900449937809
	A_ESSEN	0.6851808634772462	0.8807711821410451	0.19559031866379895	0.8807711821410451	0.41472303206997085	0.2783333333333333	-0.13638969873663753	0.6024378488077118	0.3319800174004365
	B_ESSEN	0.21004200840168033	0.0	-0.21004200840168033	0.0	0.0	0.0	0.0	0.0	-0.21004200840168033
	ESSEN			-0.007225844868940692				0.3012189244038559	0.060969004499378074
	A_FAHREN	nan	nan	nan	nan	0.4166987302808773	0.40024834437086093	-0.016450385910016352	nan	nan
	B_FAHREN	nan	1.0	nan	1.0	1.0	nan	nan	nan	nan
	FAHREN			nan				nan	nan
	A_LESEN	0.5913555992141454	0.5173745173745173	-0.07398108183962804	0.5173745173745173	0.0	0.26903023983315955	0.26903023983315955	0.2483442775413578	-0.3430113216727876
	B_LESEN	0.8442776735459663	nan	nan	nan	0.9845433255269321	1.0	0.015456674473067866	nan	nan
	LESEN			-0.07398108183962804				0.2483442775413578	-0.3430113216727876
	A_SCHAUKELN	0.45971361402008976	0.009444444444444445	-0.45026916957564533	0.009444444444444445	nan	0.10522999369880277	nan	-0.09578554925435832	nan
	B_SCHAUKELN	1.0	1.0	0.0	1.0	1.0	1.0	0.0	0.0	0.0
	SCHAUKELN			-0.22513458478782267				-0.04789277462717916	0.0
	A_SCHLAFEN	0.8702646600934094	1.0	0.12973533990659059	1.0	0.8765432098765432	1.0	0.12345679012345678	0.0	0.006278549783133802
	B_SCHLAFEN	0.25	nan	nan	nan	nan	0.027554535017221583	nan	nan	nan
	SCHLAFEN			0.12973533990659059				0.0	0.006278549783133802
	A_SITZEN	0.12345679012345678	0.0	-0.12345679012345678	0.0	0.12973533990659056	0.0	-0.12973533990659056	0.0	0.006278549783133774
	B_SITZEN	nan	0.9724454649827784	nan	0.9724454649827784	0.75	nan	nan	nan	nan
	SITZEN			-0.12345679012345678				0.0	0.006278549783133774
	A_TRINKEN	nan	0.8947700063011972	nan	0.8947700063011972	0.5402863859799102	0.9905555555555555	0.45026916957564533	-0.09578554925435834	nan
	B_TRINKEN	0.0	0.0	0.0	0.0	0.0	0.0	0.0	0.0	0.0
	TRINKEN			0.0				-0.04789277462717917	0.0
