TSV-FILE	AVI-File	Left_before	Left_After	Right_Before	Right_After	Fixation_Direction	Before Total	After total	Prop Before	Prop After	Prop Target	Prop Distractor	Prop Dis(before)
VP63.tsv		0	0	0	0
VP63.tsv	A_BAUEN_essen_können1_neu.avi	4105	3633	1100	0	left	5205	3633	0.7886647454370798	1.0	1.0	0.0	0.21133525456292027
VP63.tsv	A_FAHREN_baden_können1_neu.avi	5066	3233	0	400	left	5066	3633	1.0	0.8898981557941096	0.8898981557941096	0.11010184420589045	0.0
VP63.tsv	A_LESEN_anziehen_können1_neu.avi	2971	1267	1883	2367	left	4854	3634	0.6120725175113308	0.34865162355531093	0.34865162355531093	0.651348376444689	0.38792748248866915
VP63.tsv	A_SCHAUKELN_trinken_können1_neu.avi	4049	2283	817	0	left	4866	2283	0.8321002877106453	1.0	1.0	0.0	0.1678997122893547
VP63.tsv	A_SITZEN_schlafen_können1_neu.avi	3617	3633	732	0	left	4349	3633	0.831685444929869	1.0	1.0	0.0	0.16831455507013107
VP63.tsv	A_bauen_ESSEN_können2_neu.avi	4897	3634	0	0	left	4897	3634	0.0	0.0	0.0	1.0	1.0
VP63.tsv	A_fahren_BADEN_können2_neu.avi	4522	2633	199	1000	left	4721	3633	0.042152086422368146	0.2752546105147261	0.2752546105147261	0.7247453894852739	0.9578479135776319
VP63.tsv	A_lesen_ANZIEHEN_können2_neu.avi	3749	3533	1116	100	left	4865	3633	0.22939362795477902	0.027525461051472612	0.027525461051472612	0.9724745389485274	0.770606372045221
VP63.tsv	A_schaukeln_TRINKEN_können2_neu.avi	3984	2550	984	1067	left	4968	3617	0.19806763285024154	0.2949958529167819	0.2949958529167819	0.7050041470832181	0.8019323671497585
VP63.tsv	A_sitzen_SCHLAFEN_können2_neu.avi	3510	2484	627	700	left	4137	3184	0.15155910079767948	0.2198492462311558	0.2198492462311558	0.7801507537688442	0.8484408992023206
VP63.tsv	B_ANZIEHEN_lesen_mögen1_neu.avi	4994	2865	0	768	left	4994	3633	1.0	0.7886044591246903	0.7886044591246903	0.21139554087530965	0.0
VP63.tsv	B_BADEN_fahren_mögen1_neu.avi	1083	16	3808	1167	right	4891	1183	0.22142711102024126	0.013524936601859678	0.013524936601859678	0.9864750633981403	0.7785728889797587
VP63.tsv	B_ESSEN_bauen_mögen1_neu.avi	2687	3633	2250	0	left	4937	3633	0.5442576463439336	1.0	1.0	0.0	0.4557423536560664
VP63.tsv	B_SCHLAFEN_sitzen_mögen1_neu.avi	2884	1583	1933	300	left	4817	1883	0.5987128918413951	0.8406797663303239	0.8406797663303239	0.15932023366967604	0.40128710815860497
VP63.tsv	B_TRINKEN_schaukeln_mögen1_neu.avi	1537	2367	3315	1267	left	4852	3634	0.31677658697444355	0.651348376444689	0.651348376444689	0.34865162355531093	0.6832234130255564
VP63.tsv	B_anziehen_LESEN_mögen2_neu.avi	5073	2618	0	0	left	5073	2618	0.0	0.0	0.0	1.0	1.0
VP63.tsv	B_baden_FAHREN_mögen2_neu.avi	0	0	5100	3633	right	5100	3633	1.0	1.0	1.0	0.0	0.0
VP63.tsv	B_essen_BAUEN_mögen2_neu.avi	1282	0	3392	3633	right	4674	3633	0.725716730851519	1.0	1.0	0.0	0.27428326914848095
VP63.tsv	B_schlafen_SITZEN_mögen2_neu.avi	2283	3033	1634	0	left	3917	3033	0.4171559867245341	0.0	0.0	1.0	0.5828440132754659
VP63.tsv	B_trinken_SChAUKELN_mögen2_neu.avi	1850	1216	2944	2400	right	4794	3616	0.6141009595327492	0.6637168141592921	0.6637168141592921	0.336283185840708	0.3858990404672507


		Before	After	Bef_Aft_Tar	Target	Dis (before)	Dis (after)	Bef_Atf_Dis	T-D	T-D(B-A)
	A_ANZIEHEN	0.22939362795477902	0.027525461051472612	-0.20186816690330642	0.027525461051472612	0.38792748248866915	0.651348376444689	0.26342089395601986	-0.6238229153932164	-0.4652890608593263
	B_ANZIEHEN	1.0	0.7886044591246903	-0.21139554087530965	0.7886044591246903	1.0	1.0	0.0	-0.21139554087530965	-0.21139554087530965
	ANZIEHEN			-0.20663185388930805				-0.41760922813426304	-0.338342300867318
	A_BADEN	0.042152086422368146	0.2752546105147261	0.23310252409235796	0.2752546105147261	0.0	0.11010184420589045	0.11010184420589045	0.16515276630883566	0.12300067988646751
	B_BADEN	0.22142711102024126	0.013524936601859678	-0.20790217441838157	0.013524936601859678	0.0	0.0	0.0	0.013524936601859678	-0.20790217441838157
	BADEN			0.012600174836988193				0.08933885145534767	-0.04245074726595703
	A_BAUEN	0.7886647454370798	1.0	0.21133525456292024	1.0	1.0	1.0	0.0	0.0	0.21133525456292024
	B_BAUEN	0.725716730851519	1.0	0.274283269148481	1.0	0.4557423536560664	0.0	-0.4557423536560664	1.0	0.7300256228045474
	BAUEN			0.24280926185570062				0.5	0.4706804386837338
	A_ESSEN	0.0	0.0	0.0	0.0	0.21133525456292027	0.0	-0.21133525456292027	0.0	0.21133525456292027
	B_ESSEN	0.5442576463439336	1.0	0.4557423536560664	1.0	0.27428326914848095	0.0	-0.27428326914848095	1.0	0.7300256228045474
	ESSEN			0.2278711768280332				0.5	0.4706804386837338
	A_FAHREN	1.0	0.8898981557941096	-0.11010184420589042	0.8898981557941096	0.9578479135776319	0.7247453894852739	-0.233102524092358	0.16515276630883569	0.12300067988646757
	B_FAHREN	1.0	1.0	0.0	1.0	0.7785728889797587	0.9864750633981403	0.20790217441838155	0.013524936601859716	-0.20790217441838155
	FAHREN			-0.05505092210294521				0.0893388514553477	-0.04245074726595699
	A_LESEN	0.6120725175113308	0.34865162355531093	-0.2634208939560199	0.34865162355531093	0.770606372045221	0.9724745389485274	0.20186816690330645	-0.6238229153932164	-0.46528906085932636
	B_LESEN	0.0	0.0	0.0	0.0	0.0	0.21139554087530965	0.21139554087530965	-0.21139554087530965	-0.21139554087530965
	LESEN			-0.13171044697800996				-0.41760922813426304	-0.338342300867318
	A_SCHAUKELN	0.8321002877106453	1.0	0.16789971228935474	1.0	0.8019323671497585	0.7050041470832181	-0.09692822006654034	0.2949958529167819	0.2648279323558951
	B_SCHAUKELN	0.6141009595327492	0.6637168141592921	0.04961585462654283	0.6637168141592921	0.6832234130255564	0.34865162355531093	-0.3345717894702455	0.31506519060398114	0.38418764409678835
	SCHAUKELN			0.10875778345794879				0.3050305217603815	0.32450778822634174
	A_SCHLAFEN	0.15155910079767948	0.2198492462311558	0.06829014543347631	0.2198492462311558	0.16831455507013107	0.0	-0.16831455507013107	0.2198492462311558	0.23660470050360738
	B_SCHLAFEN	0.5987128918413951	0.8406797663303239	0.24196687448892884	0.8406797663303239	0.5828440132754659	1.0	0.41715598672453413	-0.15932023366967607	-0.1751891122356053
	SCHLAFEN			0.1551285099612026				0.03026450628073986	0.030707794134001043
	A_SITZEN	0.831685444929869	1.0	0.16831455507013104	1.0	0.8484408992023206	0.7801507537688442	-0.06829014543347633	0.21984924623115576	0.23660470050360738
	B_SITZEN	0.4171559867245341	0.0	-0.4171559867245341	0.0	0.40128710815860497	0.15932023366967604	-0.24196687448892892	-0.15932023366967604	-0.17518911223560515
	SITZEN			-0.12442071582720152				0.03026450628073986	0.030707794134001112
	A_TRINKEN	0.19806763285024154	0.2949958529167819	0.09692822006654034	0.2949958529167819	0.1678997122893547	0.0	-0.1678997122893547	0.2949958529167819	0.2648279323558951
	B_TRINKEN	0.31677658697444355	0.651348376444689	0.33457178947024546	0.651348376444689	0.3858990404672507	0.336283185840708	-0.04961585462654272	0.315065190603981	0.3841876440967882
	TRINKEN			0.2157500047683929				0.3050305217603815	0.32450778822634163
