TSV-FILE	AVI-File	Left_before	Left_After	Right_Before	Right_After	Fixation_Direction	Before Total	After total	Prop Before	Prop After	Prop Target	Prop Distractor	Prop Dis(before)
VP71?.tsv		0	0	0	0
VP71?.tsv	A_BAUEN_essen_können1_neu.avi	 No click registered
VP71?.tsv	A_FAHREN_baden_können1_neu.avi	 No click registered
VP71?.tsv	A_LESEN_anziehen_können1_neu.avi	 No click registered
VP71?.tsv	A_SCHAUKELN_trinken_können1_neu.avi	 No click registered
VP71?.tsv	A_SITZEN_schlafen_können1_neu.avi	 No click registered
VP71?.tsv	A_bauen_ESSEN_können2_neu.avi	 No click registered
VP71?.tsv	A_fahren_BADEN_können2_neu.avi	 No click registered
VP71?.tsv	A_lesen_ANZIEHEN_können2_neu.avi	 No click registered
VP71?.tsv	A_schaukeln_TRINKEN_können2_neu.avi	 No click registered
VP71?.tsv	A_sitzen_SCHLAFEN_können2_neu.avi	 No click registered
VP71?.tsv	B_ANZIEHEN_lesen_mögen1_neu.avi	 No click registered
VP71?.tsv	B_BADEN_fahren_mögen1_neu.avi	 No click registered
VP71?.tsv	B_ESSEN_bauen_mögen1_neu.avi	 No click registered
VP71?.tsv	B_SCHLAFEN_sitzen_mögen1_neu.avi	 No click registered
VP71?.tsv	B_TRINKEN_schaukeln_mögen1_neu.avi	 No click registered
VP71?.tsv	B_anziehen_LESEN_mögen2_neu.avi	 No click registered
VP71?.tsv	B_baden_FAHREN_mögen2_neu.avi	 No click registered
VP71?.tsv	B_essen_BAUEN_mögen2_neu.avi	 No click registered
VP71?.tsv	B_schlafen_SITZEN_mögen2_neu.avi	 No click registered
VP71?.tsv	B_trinken_SChAUKELN_mögen2_neu.avi	 No click registered


		Before	After	Bef_Aft_Tar	Target	Dis (before)	Dis (after)	Bef_Atf_Dis	T-D	T-D(B-A)
	A_ANZIEHEN	nan	nan	nan	nan	nan	nan	nan	nan	nan
	B_ANZIEHEN	nan	nan	nan	nan	nan	nan	nan	nan	nan
	ANZIEHEN			nan				nan	nan
	A_BADEN	nan	nan	nan	nan	nan	nan	nan	nan	nan
	B_BADEN	nan	nan	nan	nan	nan	nan	nan	nan	nan
	BADEN			nan				nan	nan
	A_BAUEN	nan	nan	nan	nan	nan	nan	nan	nan	nan
	B_BAUEN	nan	nan	nan	nan	nan	nan	nan	nan	nan
	BAUEN			nan				nan	nan
	A_ESSEN	nan	nan	nan	nan	nan	nan	nan	nan	nan
	B_ESSEN	nan	nan	nan	nan	nan	nan	nan	nan	nan
	ESSEN			nan				nan	nan
	A_FAHREN	nan	nan	nan	nan	nan	nan	nan	nan	nan
	B_FAHREN	nan	nan	nan	nan	nan	nan	nan	nan	nan
	FAHREN			nan				nan	nan
	A_LESEN	nan	nan	nan	nan	nan	nan	nan	nan	nan
	B_LESEN	nan	nan	nan	nan	nan	nan	nan	nan	nan
	LESEN			nan				nan	nan
	A_SCHAUKELN	nan	nan	nan	nan	nan	nan	nan	nan	nan
	B_SCHAUKELN	nan	nan	nan	nan	nan	nan	nan	nan	nan
	SCHAUKELN			nan				nan	nan
	A_SCHLAFEN	nan	nan	nan	nan	nan	nan	nan	nan	nan
	B_SCHLAFEN	nan	nan	nan	nan	nan	nan	nan	nan	nan
	SCHLAFEN			nan				nan	nan
	A_SITZEN	nan	nan	nan	nan	nan	nan	nan	nan	nan
	B_SITZEN	nan	nan	nan	nan	nan	nan	nan	nan	nan
	SITZEN			nan				nan	nan
	A_TRINKEN	nan	nan	nan	nan	nan	nan	nan	nan	nan
	B_TRINKEN	nan	nan	nan	nan	nan	nan	nan	nan	nan
	TRINKEN			nan				nan	nan
